<?xml version="1.0" encoding="utf-8"?>
<!-- Generator: Adobe Illustrator 23.0.3, SVG Export Plug-In . SVG Version: 6.00 Build 0)  -->
<svg version="1.1" id="Слой_1" xmlns="http://www.w3.org/2000/svg" xmlns:xlink="http://www.w3.org/1999/xlink" x="0px" y="0px"
	 viewBox="0 0 240 240" style="enable-background:new 0 0 240 240;" xml:space="preserve">
<style type="text/css">
	.st0{fill:#FFFFFF;}
	.st1{fill:#9E6C46;}
	.st2{fill:#E06363;}
	.st3{fill:#DBC6BA;}
	.st4{fill:#EFD7B4;}
	.st5{fill:#35241B;}
	.st6{fill:#E9E4F2;}
</style>
<path class="st0" d="M0,0.00003C79.99994,0,159.99994,0,239.99994,0c0,80,0,160,0,239.99994C160,240,80,240,0,240
	C0,160,0,80,0,0.00003z M92.67242,138.979c-1.2793,0.52283-2.71814,0.87183-3.8844,1.63654
	c-2.56348,1.68085-4.17572,4.1554-5.0296,7.09076c-0.91803,3.15594-0.53503,6.23608,0.59088,9.28387
	c0.23035,0.62366,0.23486,1.38409,0.15399,2.05878c-0.19873,1.65759-0.1767,3.28326,0.46521,4.83759
	c0.71936,1.74194,1.83002,3.08289,3.82831,3.44275c0.26068,0.04694,0.52808,0.29144,0.70734,0.51318
	c0.65271,0.80707,1.14923,1.78571,1.92401,2.43964c1.72583,1.45673,1.68396,2.85687,1.03845,5.01501
	c-2.19958,7.354-2.10547,14.72791,1.03436,21.90692c0.35535,0.81238,0.4729,1.75897,0.55225,2.65649
	c0.26715,3.02277,0.33459,6.06879,0.72668,9.07355c0.4903,3.75769,1.17242,7.49353,1.87482,11.2193
	c0.5011,2.65839,0.96655,5.3537,1.82349,7.90643c0.90247,2.68848,3.53375,3.3374,5.76947,1.62335
	c0.96881-0.74274,1.93134-1.60535,2.59784-2.61145c2.78644-4.20654,4.01471-8.83533,3.37622-13.89587
	c-0.1087-0.86182-0.21155-1.72449-0.34967-2.85309c4.3772,0.34009,8.66901,1.0014,12.93671-0.38483
	c0.28766,4.94751,1.46912,9.47375,3.53546,13.76959c1.07813,2.24146,2.59259,4.16479,4.58569,5.60645
	c0.99866,0.72241,2.28333,1.10382,3.49084,1.46442c0.85156,0.25421,1.55084-0.07922,2.02948-1.00262
	c1.05499-2.03522,0.61322-4.12909,0.48029-6.22913c-0.16882-2.66614-0.47296-5.33948-0.40259-8.0014
	c0.10547-3.9906,0.48322-7.97418,0.75562-11.96002c0.01819-0.26611,0.04553-0.5929,0.20227-0.77863
	c1.24884-1.47974,2.52997-2.93219,3.60712-4.1701c1.0589,0.35468,2.06921,0.91431,3.1178,0.99866
	c2.25403,0.18127,4.03827-0.86859,5.2547-2.74561c1.45758-2.24921,2.05585-4.76672,1.88336-7.4303
	c-0.14795-2.28381-0.77075-4.40698-2.52643-6.0434c-1.41223-1.31628-3.09167-1.70892-4.98065-1.40826
	c-0.40228-5.05066-1.68134-9.82233-3.27289-14.51849c-1.89758-5.59918-3.79028-11.1972-4.87933-17.02869
	c-0.14148-0.75775-0.14563-1.20795,0.78613-1.49402c7.99036-2.45276,13.21991-7.84576,16.09082-15.56311
	c0.56824-1.52753,0.7356-3.28717,0.71338-4.93475c-0.05121-3.80115-1.27997-6.9267-5.47906-7.96979
	c-0.28662-0.07123-0.62994-0.59198-0.65704-0.92706c-0.33801-4.17828-1.38885-8.1734-2.91742-12.06366
	c-2.79028-7.10138-7.24542-12.83246-13.77679-16.87207c-0.63867-0.39502-1.297-0.75818-1.9101-1.11511
	c0-0.17267-0.01868-0.25568,0.0033-0.32599c0.08331-0.26654,0.17548-0.53055,0.27216-0.79263
	c0.82202-2.2291,0.99963-4.50241,0.53644-6.83798c-1.59521-8.04324-11.73596-10.48666-16.70819-5.91928
	c-2.44342,2.24451-3.75494,4.92734-4.11603,8.13361c-0.09088,0.80661-0.31476,1.35828-1.10187,1.62628
	c-1.05304,0.35855-2.11511,0.69678-3.14758,1.10837c-6.38782,2.54663-11.24615,6.78925-14.26227,13.02118
	c-0.33801,0.69836-0.72522,0.89093-1.46539,0.85071c-1.39551-0.07574-2.80096-0.09808-4.19617-0.02509
	c-4.16443,0.2179-7.45215,2.06262-9.5849,5.65436c-1.75775,2.96027-1.61194,6.19-0.83624,9.42828
	c0.75537,3.15332,2.42206,5.65442,5.33551,7.17181c1.55341,0.80896,3.20911,1.41943,4.79004,2.17896
	c0.41443,0.19904,0.86163,0.55164,1.0564,0.94977c1.2262,2.50671,2.24634,5.12439,3.60974,7.55078
	C89.86847,135.33008,91.38708,137.15582,92.67242,138.979z M122.47418,48.24387c1.50934,0,2.90143-0.00339,4.29352,0.00085
	c1.73053,0.00525,2.07037,0.19437,2.62201,1.83823c0.28009,0.83459,0.73608,1.16431,1.58093,1.07285
	c0.35571-0.03851,0.7215-0.03363,1.07843-0.00128c0.93658,0.0849,1.30853-0.37674,1.31934-1.26266
	c0.02637-2.15781,0.07837-4.31537,0.09253-6.47321c0.00189-0.29193-0.0658-0.67154-0.25262-0.8624
	c-0.80206-0.81934-3.29608-0.25012-3.72101,0.8269c-0.3399,0.8616-0.79059,1.6246-1.83044,1.64828
	c-1.70563,0.03879-3.41278,0.0105-5.1394,0.0105c0-3.00247,0-5.86179,0-8.79819c0.42865-0.02884,0.77759-0.07513,1.12604-0.07202
	c1.99799,0.01776,3.99908,0.12845,5.99298,0.05054c2.09717-0.08194,3.36914,0.85422,4.15265,2.73389
	c0.6875,1.64941,1.57629,2.05508,3.34021,1.75143c0.58899-0.10138,0.92963-0.36404,0.94495-1.01398
	c0.03864-1.63678,0.13898-3.27237,0.15997-4.90915c0.01611-1.25214-0.2218-1.48041-1.45087-1.49652
	c-6.67322-0.08752-13.34644-0.18967-20.01996-0.21619c-1.0141-0.00406-2.16058-0.4801-3.0683,0.44504
	c-0.02039,0.02078-0.15149-0.08417-0.23718-0.10757c-0.40546-0.1106-0.81421-0.30844-1.21973-0.3035
	c-3.03583,0.03711-6.07092,0.13998-9.10675,0.16525c-0.97021,0.00806-1.24451,0.44366-1.21381,1.3269
	c0.02905,0.8342,0.51733,1.05685,1.22241,1.17905c1.62384,0.2814,1.98071,0.75232,1.69885,2.36243
	c-0.12933,0.73886-0.40918,1.45929-0.68372,2.16351c-1.69623,4.3504-3.40875,8.69449-5.12329,13.03775
	c-0.08936,0.22641-0.24683,0.42596-0.44586,0.7616c-2.17126-5.15939-4.31598-10.14224-6.35815-15.16678
	c-0.76367-1.879-0.44287-2.39145,1.5332-2.87662c0.91565-0.22482,1.00018-0.80817,0.94586-1.52057
	c-0.05591-0.73401-0.48907-1.00342-1.22687-0.96017c-2.07312,0.12158-4.14905,0.19397-6.22345,0.29373
	c-1.27661,0.0614-2.55273,0.13513-3.8288,0.20798c-0.61377,0.03503-1.12903,0.23816-1.15204,0.95059
	c-0.01868,0.57742-0.16125,1.34167,0.65967,1.45828c2.00275,0.28442,2.69788,1.83167,3.37726,3.3754
	c2.89313,6.57361,5.7688,13.155,8.62933,19.74289c0.96069,2.21255,0.93158,2.16809,3.37311,2.17096
	c1.20624,0.00143,1.80713-0.41058,2.28748-1.5647c2.97424-7.1463,6.04102-14.25415,9.09052-21.36899
	c0.69293-1.61655,1.58551-3.05875,3.48596-3.49213c0.17474-0.03986,0.31836-0.21637,0.39899-0.27405
	c0.35742,0.16138,0.66663,0.33957,0.99896,0.44461c1.76489,0.55786,1.85968,0.55029,1.88385,2.37289
	c0.08228,6.19476,0.08777,12.39053,0.13574,18.58582c0.0094,1.21472-0.47705,1.97867-1.73334,2.16391
	c-0.8598,0.12677-1.0719,0.71393-1.00964,1.48145c0.06946,0.85611,0.66437,0.99152,1.35748,0.99936
	c6.95306,0.07889,13.90607,0.15967,20.85913,0.23566c0.72595,0.00793,1.2171-0.24692,1.28992-1.07932
	c0.17407-1.9895,0.39941-3.97446,0.58099-5.96335c0.05981-0.65482-0.23608-1.10229-0.94226-1.10327
	c-2.5509-0.00351-2.40979-0.66913-3.39612,1.88971c-0.1145,0.29697-0.26636,0.57971-0.40442,0.86731
	c-0.69434,1.44592-1.81183,2.15994-3.44708,2.08762c-1.15729-0.05121-2.31866-0.0101-3.47827-0.01013
	c-1.26324-0.00003-2.52649,0-3.79889,0C122.47418,54.66446,122.47418,51.51431,122.47418,48.24387z M207.7691,59.20004
	c-0.02783,5.0835,1.78772,7.88278,5.74109,9.18411c2.17944,0.71738,4.48767,1.23563,6.77075,1.4082
	c5.9917,0.45297,9.49011-2.35535,10.64514-8.2724c0.81055-4.15198,1.5802-8.31198,2.36279-12.46939
	c0.40527-2.15311,0.39539-2.18085,2.56958-2.5528c0.82092-0.14041,1.00574-0.65936,1.08142-1.34125
	c0.07776-0.70102-0.26721-1.01028-0.92493-1.12845c-2.86755-0.51505-5.7312-1.05215-8.59705-1.57657
	c-0.67517-0.12354-1.24353-0.11874-1.48499,0.74811c-0.23938,0.8595-0.00537,1.32199,0.8092,1.68991
	c1.52319,0.68793,1.62671,0.9519,1.33875,2.60938c-0.526,3.02814-1.04089,6.05859-1.60889,9.07901
	c-0.40527,2.15536-0.77124,4.32944-1.36804,6.43469c-0.7821,2.75931-2.83093,3.97989-5.6676,3.60776
	c-0.63171-0.08289-1.26135-0.21008-1.87903-0.36771c-3.25525-0.83084-4.52161-2.69238-4.02332-5.98572
	c0.7345-4.85538,1.50134-9.70587,2.26172-14.55731c0.28735-1.83359,0.43457-2.02228,2.26648-2.30588
	c0.8468-0.1311,1.16675-0.59198,1.21899-1.34625c0.0575-0.8298-0.48059-1.09348-1.18469-1.19827
	c-2.96143-0.4408-5.92175-0.88824-8.8822-1.33566c-0.67419-0.1019-1.27039-0.12057-1.4989,0.74121
	c-0.22595,0.85278,0.0647,1.35278,0.85193,1.70578c1.47375,0.66074,1.58655,0.85574,1.36377,2.48474
	c-0.31934,2.33398-0.69519,4.66019-1.03748,6.99109C208.47052,54.32813,208.05719,57.21133,207.7691,59.20004z M163.18085,47.17026
	c-1.6546-2.99017-3.25897-5.78284-4.74969-8.63492c-0.61646-1.17944-0.29199-1.64398,1.10962-1.76334
	c0.86676-0.07379,1.05597-0.49588,1.06024-1.24686c0.00458-0.78604-0.30652-1.19354-1.10681-1.23566
	c-3.19043-0.16785-6.37946-0.37262-9.57172-0.48761c-0.3938-0.01416-0.99402,0.33594-1.16394,0.68167
	c-0.28467,0.57919-0.12799,1.15677,0.48663,1.66129c1.02795,0.84375,2.13226,1.70633,2.84937,2.79489
	c1.82043,2.76321,3.35907,5.71185,5.1745,8.4787c1.36786,2.08469,2.21307,4.16864,1.63416,6.7085
	c-0.22791,1.00003-0.14386,2.06802-0.24536,3.10077c-0.18921,1.9248-0.40979,2.17657-2.3598,2.51404
	c-0.87671,0.1517-1.06793,0.66165-1.05585,1.44083c0.01239,0.80292,0.46588,1.00916,1.15076,1.05313
	c2.03284,0.13052,4.06439,0.28171,6.09656,0.42361c1.23517,0.08627,2.47363,0.13947,3.70471,0.26535
	c0.94354,0.0965,1.18097-0.44418,1.23895-1.20468c0.06104-0.80057-0.44012-1.08499-1.11194-1.31598
	c-1.61633-0.55573-1.90613-1.0463-1.78857-2.76495c0.13086-1.91287,0.23505-3.82822,0.41266-5.73672
	c0.04486-0.48215,0.22052-1.02386,0.51361-1.39987c2.38208-3.05634,4.77667-6.10403,7.23145-9.10199
	c1.0788-1.3175,2.11792-2.76501,3.90057-3.22885c0.92377-0.24039,1.04047-0.8779,1.0224-1.63644
	c-0.02032-0.8537-0.70837-0.88403-1.28882-0.9371c-2.466-0.22546-4.93622-0.40427-7.40289-0.62302
	c-0.75006-0.06653-1.2525,0.15686-1.39972,0.9425c-0.13538,0.72217,0.04309,1.27884,0.8363,1.4614
	c0.9823,0.22604,1.05719,0.87503,0.73248,1.64252c-0.23132,0.54672-0.51544,1.08917-0.87085,1.56219
	C166.61401,42.72095,164.97437,44.83282,163.18085,47.17026z M40.39642,63.37408c-0.31738-2.28922-0.60907-4.38293-0.89764-6.47711
	c-0.59412-4.31195-1.21484-8.62054-1.76813-12.93777c-0.28461-2.22076-0.24072-2.25037,1.61523-3.1485
	c0.73364-0.35504,0.83997-0.86877,0.66492-1.5708c-0.18042-0.72351-0.64172-0.95099-1.33954-0.84973
	c-3.12128,0.45291-6.24115,0.91638-9.36646,1.34027c-1.01117,0.13715-1.12134,0.72507-0.93042,1.53854
	c0.16364,0.69705,0.65887,0.91345,1.32007,0.98691c1.54266,0.17136,1.71924,0.33792,1.98969,1.86972
	c0.21497,1.21786,0.38672,2.4437,0.5611,3.66837c0.70367,4.94159,1.38647,9.8862,2.11084,14.82474
	c0.17523,1.19482-0.1214,2.02863-1.34302,2.41324c-0.57721,0.18173-0.95483,0.50989-0.89789,1.2186
	c0.08685,1.08096,0.466,1.3696,1.81165,1.19388c6.61279-0.86359,13.2229-1.74805,19.83826-2.59134
	c0.92303-0.11768,1.24194-0.55609,1.18707-1.4267c-0.11292-1.79333-0.21332-3.58768-0.297-5.38263
	c-0.13892-2.97894-0.3382-2.40329-2.62103-2.19763c-0.93127,0.08389-1.22302,0.54507-1.37933,1.3273
	c-0.20276,1.01477-0.40399,2.03479-0.69861,3.02493c-0.34534,1.16064-1.15515,1.94492-2.35754,2.14056
	C45.24152,62.72244,42.87097,63.02341,40.39642,63.37408z M83.30493,48.73785c-0.13525-1.04782-0.22174-2.53375-0.53168-3.97153
	c-1.1261-5.22488-4.15265-8.62253-9.56195-9.58823c-3.49884-0.62463-6.93097-0.32233-10.23639,1.00153
	c-3.84973,1.54187-6.38556,4.30829-7.39777,8.35553c-1.02368,4.09274-0.54968,8.09958,1.0481,11.95691
	c1.24933,3.0163,3.38641,5.24872,6.55133,6.24506c5.07343,1.59717,9.99231,1.08173,14.49188-1.76453
	C81.95166,58.26318,83.13519,53.92142,83.30493,48.73785z M203.79437,49.8772c0-0.59933,0.04626-1.20279-0.00745-1.79727
	c-0.37952-4.20541-2.29651-7.4491-6.12793-9.36649c-3.45251-1.72778-7.15466-2.29526-10.95898-1.72125
	c-4.39862,0.66367-7.76654,2.93463-9.58801,7.07465c-1.82758,4.15396-2.17255,8.49649-0.89294,12.87772
	c0.96185,3.29358,3.11261,5.61066,6.27057,6.9722c3.12396,1.34686,6.40985,1.75632,9.74371,1.31937
	c4.82031-0.63177,8.23975-3.24042,10.12036-7.76767C203.36188,55.0415,203.83881,52.50464,203.79437,49.8772z M14.46301,42.08701
	c-3.5957,0.66586-6.8949,1.25256-10.17596,1.92755c-0.28168,0.05792-0.62823,0.70651-0.61847,1.07202
	C3.685,45.70325,3.87915,46.2861,4.76111,46.3829c2.04224,0.22409,2.10669,0.29346,2.49774,2.34164
	c1.09979,5.7598,2.19965,11.52005,3.21863,17.2944c0.28345,1.60645,0.58704,2.44885-1.39996,3.14227
	c-0.87897,0.30676-0.64343,1.02856-0.49274,1.72156c0.16077,0.73923,0.66974,0.72302,1.19177,0.62946
	c2.98419-0.53485,5.96381-1.09567,8.94623-1.64063c0.68616-0.12537,1.08362-0.44714,0.99316-1.21414
	c-0.08203-0.69604-0.27191-1.186-1.12384-1.2648c-1.77417-0.16406-1.94757-0.33896-2.276-2.15567
	c-1.05768-5.84973-2.10217-11.7019-3.12823-17.55725c-0.36163-2.06384-0.33948-2.08527,1.56879-3.13336
	c0.61926-0.34015,0.76605-0.84399,0.52728-1.39923C15.10052,42.72061,14.70343,42.38593,14.46301,42.08701z"/>
<path d="M92.67242,138.979c-1.28534-1.82318-2.80396-3.64893-3.94806-5.68506c-1.3634-2.42639-2.38354-5.04407-3.60974-7.55078
	c-0.19476-0.39813-0.64197-0.75073-1.0564-0.94977c-1.58093-0.75952-3.23663-1.37-4.79004-2.17896
	c-2.91345-1.5174-4.58014-4.01849-5.33551-7.17181c-0.7757-3.23828-0.92151-6.46802,0.83624-9.42828
	c2.13275-3.59174,5.42047-5.43646,9.5849-5.65436c1.3952-0.073,2.80066-0.05066,4.19617,0.02509
	c0.74017,0.04022,1.12738-0.15234,1.46539-0.85071c3.01611-6.23193,7.87445-10.47455,14.26227-13.02118
	c1.03247-0.41159,2.09454-0.74982,3.14758-1.10837c0.78711-0.26801,1.01099-0.81967,1.10187-1.62628
	c0.36108-3.20627,1.67261-5.8891,4.11603-8.13361c4.97223-4.56738,15.11298-2.12396,16.70819,5.91928
	c0.4632,2.33557,0.28558,4.60889-0.53644,6.83798c-0.09668,0.26208-0.18884,0.52609-0.27216,0.79263
	c-0.02197,0.07031-0.0033,0.15332-0.0033,0.32599c0.6131,0.35693,1.27142,0.72009,1.9101,1.11511
	c6.53137,4.03961,10.98651,9.77069,13.77679,16.87207c1.52856,3.89026,2.57941,7.88538,2.91742,12.06366
	c0.0271,0.33508,0.37042,0.85583,0.65704,0.92706c4.1991,1.04309,5.42786,4.16864,5.47906,7.96979
	c0.02222,1.64758-0.14514,3.40723-0.71338,4.93475c-2.87091,7.71735-8.10046,13.11035-16.09082,15.56311
	c-0.93176,0.28607-0.92761,0.73627-0.78613,1.49402c1.08905,5.83148,2.98175,11.4295,4.87933,17.02869
	c1.59155,4.69617,2.87061,9.46783,3.27289,14.51849c1.88898-0.30066,3.56842,0.09198,4.98065,1.40826
	c1.75568,1.63641,2.37848,3.75958,2.52643,6.0434c0.17249,2.66357-0.42578,5.18109-1.88336,7.4303
	c-1.21643,1.87701-3.00067,2.92688-5.2547,2.74561c-1.04858-0.08435-2.0589-0.64398-3.1178-0.99866
	c-1.07715,1.23792-2.35828,2.69037-3.60712,4.1701c-0.15674,0.18573-0.18408,0.51251-0.20227,0.77863
	c-0.2724,3.98584-0.65015,7.96942-0.75562,11.96002c-0.07037,2.66193,0.23376,5.33527,0.40259,8.0014
	c0.13293,2.10004,0.57471,4.19391-0.48029,6.22913c-0.47864,0.9234-1.17792,1.25684-2.02948,1.00262
	c-1.20752-0.3606-2.49219-0.742-3.49084-1.46442c-1.9931-1.44165-3.50757-3.36499-4.58569-5.60645
	c-2.06635-4.29584-3.2478-8.82208-3.53546-13.76959c-4.2677,1.38623-8.55951,0.72491-12.93671,0.38483
	c0.13812,1.1286,0.24097,1.99127,0.34967,2.85309c0.63849,5.06055-0.58978,9.68933-3.37622,13.89587
	c-0.6665,1.0061-1.62903,1.86871-2.59784,2.61145c-2.23572,1.71405-4.867,1.06512-5.76947-1.62335
	c-0.85693-2.55273-1.32239-5.24805-1.82349-7.90643c-0.70239-3.72577-1.38452-7.46161-1.87482-11.2193
	c-0.39209-3.00476-0.45953-6.05078-0.72668-9.07355c-0.07935-0.89752-0.1969-1.84412-0.55225-2.65649
	c-3.13983-7.17902-3.23395-14.55292-1.03436-21.90692c0.64551-2.15814,0.68738-3.55829-1.03845-5.01501
	c-0.77478-0.65393-1.2713-1.63257-1.92401-2.43964c-0.17926-0.22174-0.44666-0.46625-0.70734-0.51318
	c-1.99829-0.35986-3.10895-1.70081-3.82831-3.44275c-0.64191-1.55432-0.66394-3.17999-0.46521-4.83759
	c0.08087-0.67468,0.07635-1.43512-0.15399-2.05878c-1.12592-3.04779-1.50891-6.12793-0.59088-9.28387
	c0.85388-2.93536,2.46613-5.40991,5.0296-7.09076C89.95428,139.85083,91.39313,139.50183,92.67242,138.979z M128.76257,127.56409
	c-0.26764-0.28455-0.4989-0.54608-0.74658-0.79108c-1.16547-1.15283-2.39716-2.24548-3.49219-3.46143
	c-3.33801-3.70654-4.42218-8.29749-2.2749-12.72589c1.18451-2.44293,3.10559-3.72607,5.84448-3.56708
	c2.72784,0.15833,5.12506,1.18262,7.10315,3.08618c2.30103,2.21436,3.73993,4.95752,4.75671,7.94763
	c0.16199,0.47626,0.33801,0.94769,0.5119,1.43353c1.44641-0.77875,1.95575-0.84912,2.74664-0.29187
	c1.19604,0.84271,1.42932,2.02014,0.9718,3.46271c2.7016-0.18152,5.14508,0.33325,7.5061,1.9115
	c-0.13513-0.33893-0.17767-0.48071-0.24518-0.60938c-0.79272-1.51044-2.21667-2.15186-3.73175-2.59515
	c-0.87018-0.25464-1.2002-0.74957-1.28021-1.612c-0.13281-1.43048-0.2533-2.87604-0.56555-4.27362
	c-1.78986-8.01105-5.12036-15.21484-11.29376-20.8457c-1.35272-1.23389-2.74554-2.54614-4.35632-3.34674
	c-2.55829-1.27164-5.29077-2.2131-7.99481-3.16583c-3.29657-1.1615-6.64886-2.02777-10.17938-0.95709
	c-0.56348,0.17087-1.18964,0.20825-1.78198,0.18475c-0.40222-0.0159-1.0415-0.14041-1.1521-0.39792
	c-0.56909-1.32513-1.56946-0.88992-2.42432-0.62503c-6.59564,2.04376-11.8551,5.82843-15.29755,11.92621
	c-0.39758,0.70428-0.75287,1.4325-1.15637,2.20435c0.67163,0.2005,1.16595,0.35199,1.66254,0.49561
	c2.46643,0.71344,3.26184,2.47833,3.08972,5.00317c-0.13757,2.01764-1.16321,2.92316-3.19873,2.98352
	c-0.68341,0.02026-1.01056,0.29828-1.26965,0.8504c-1.12573,2.3988-1.34698,4.90918-0.90771,7.48987
	c0.04303,0.25287,0.32397,0.54742,0.57037,0.67004c1.55115,0.77167,2.23993,2.10126,2.11792,3.71844
	c-0.13416,1.77875-1.41479,2.72168-3.04016,3.13525c-1.17468,0.29889-2.38818,0.44543-3.61597,0.66565
	c0.01196,0.08942,0.00372,0.25684,0.05792,0.40063c1.82373,4.83575,4.3125,9.27045,7.94836,12.99237
	c0.30347,0.31061,0.82159,0.47174,1.2691,0.57056c1.7323,0.38257,3.40503,0.88702,4.82635,2.00543
	c1.06177,0.83551,2.11755,1.67871,3.24103,2.57013c0.19202-0.21039,0.42957-0.46863,0.66486-0.72894
	c1.27765-1.41364,2.83484-2.39313,4.73218-2.60254c3.21576-0.35492,6.1076,0.48474,8.51587,2.71747
	c2.01996,1.87268,3.29059,4.19025,4.02173,6.83459c0.09222,0.33374,0.50293,0.85443,0.72577,0.83459
	c2.28796-0.20325,4.56763-0.50018,7.16095-0.80792c-2.50397-2.03815-3.12628-4.5069-2.77142-7.19318
	c0.24854-1.88116,0.73315-3.75531,1.33618-5.55768c0.46271-1.38287,1.27502-2.6488,1.93335-3.96979
	c-2.46063-0.6037-3.13635-1.20508-3.23523-2.86896C125.97681,129.16833,126.81268,128.18256,128.76257,127.56409z
	 M136.47644,157.47437c-0.02277,4.28125-1.11511,8.28046-2.96637,12.11957c-0.47803,0.99139-1.18958,1.51514-2.16278,1.6698
	c-1.01605,0.16144-2.07117,0.25836-3.09229,0.17554c-4.18378-0.33966-8.28113-1.13757-12.26447-2.60968
	c-0.32129,0.97736-0.56659,1.94867-0.9527,2.86035c-1.96301,4.63501-3.90222,9.28186-5.97699,13.86694
	c-0.9071,2.00464-1.23663,4.02673-1.01715,6.1709c0.10565,1.03253,0.24524,2.06488,0.43585,3.08484
	c0.96564,5.16699,2.68091,10.02234,5.88751,14.27539c0.53784,0.71332,1.11945,1.12067,1.99347,1.04254
	c1.58862-0.14203,3.20386-0.17261,4.75641-0.49664c4.73822-0.98889,9.17505-2.80743,13.23602-5.43146
	c3.26172-2.1076,5.65472-4.96875,7.1272-8.64142c2.20276-5.49432,1.91785-11.15863,1.16528-16.78949
	C141.66119,171.40649,138.50726,164.61615,136.47644,157.47437z M102.82391,144.89008
	c-0.02423-0.0072-0.15656-0.01331-0.24231-0.07959c-0.1557-0.12042-0.28363-0.27673-0.42316-0.41803
	c-2.06195-2.08704-4.40485-3.68762-7.34967-4.24731c-2.60162-0.49451-4.89423,0.05798-6.87457,1.89282
	c-4.80139,4.44861-5.14301,11.16681-2.06879,16.72894c0.55072,0.99646,1.25909,1.32428,2.39807,1.34302
	c1.28796,0.02112,2.67322,0.15833,3.83331,0.66431c2.45276,1.06964,2.56622,3.9668,0.31537,5.38367
	c-0.82025,0.5163-1.70056,0.93713-2.60864,1.43158c0.25281,0.29486,0.51733,0.63831,0.81708,0.94751
	c2.39331,2.46893,4.81799,4.90802,7.17865,7.40759c0.9198,0.97394,1.94421,1.19476,3.14655,0.7995
	c0.64233-0.21112,1.31763-0.41919,1.87006-0.78961c2.55212-1.71136,5.08893-3.44775,7.58478-5.23987
	c1.31177-0.94183,2.52808-2.01672,3.83618-3.0708c-0.35858-0.34143-0.59924-0.54822-0.81433-0.77893
	c-1.56506-1.67798-1.97144-3.6236-1.22467-5.77472c0.75775-2.18262,2.90662-2.87555,4.85248-1.60706
	c0.35669,0.23248,0.68378,0.5105,1.02454,0.76752c4.17188-5.76868,2.56879-14.96991-4.64093-18.15137
	c-2.66028-1.17389-5.47296-1.2959-8.03015,0.43719C104.46796,143.17059,103.71063,144.06818,102.82391,144.89008z
	 M126.40918,144.59393c-0.09113,0.84778,0.3421,2.19995,1.06488,3.48004c0.78363,1.38782,1.84265,1.88446,3.39655,1.57355
	c1.01727-0.20355,2.03082-0.42627,3.04401-0.6499c8.90039-1.96423,14.98224-7.16827,18.06818-15.77972
	c0.68463-1.9104,0.87604-3.89209,0.45154-5.89905c-0.07001-0.33087-0.19824-0.67853-0.39539-0.94843
	c-0.92694-1.26898-2.16046-2.07843-3.68848-2.50336c-2.24982-0.62579-4.47382-0.66125-6.72614-0.02411
	c-0.25275,0.07147-0.71924-0.14246-0.89075-0.37103c-0.22357-0.29791-0.27356-0.73767-0.36017-1.12488
	c-0.74554-3.33282-1.78668-6.5415-3.72266-9.40906c-1.70178-2.52069-3.9234-4.26019-6.92749-4.96887
	c-3.60968-0.85144-6.12274,0.50189-7.29108,4.00446c-1.42114,4.2605-0.091,7.84833,2.78381,11.00696
	c1.07391,1.17993,2.30811,2.21234,3.42468,3.35559c0.7514,0.76941,1.49951,1.56232,2.11682,2.43793
	c1.19025,1.68835,1.06812,2.39899-0.09882,4.026C128.26892,136.1319,126.58521,139.75305,126.40918,144.59393z M114.10339,209.82031
	c-0.0921-0.15698-0.15698-0.29803-0.24847-0.41888c-3.48901-4.61041-5.22552-9.90308-6.13654-15.53943
	c-0.48303-2.98846-0.06812-6.0553-0.91101-9.01471c-0.31378-1.10193-0.40692-2.27991-0.49097-3.43121
	c-0.15039-2.05859-0.21753-4.12329-0.32678-6.33521c-0.427,0.25-0.78174,0.48578-1.16016,0.67395
	c-1.14099,0.56757-2.25647,1.21069-3.44641,1.64935c-1.53247,0.565-2.94824,0.40948-4.09393-0.9978
	c-0.94812-1.16467-2.03302-2.21796-3.20715-3.48193c-0.31317,0.67188-0.49792,1.01074-0.63373,1.36816
	c-1.98468,5.22455-2.10486,10.64648-1.33917,16.06354c0.54541,3.85895,2.13617,7.45624,4.18774,10.75787
	c1.07758,1.73407,2.40558,3.47418,4.01697,4.68304C104.32257,208.80457,108.93701,210.23145,114.10339,209.82031z
	 M125.38782,160.87195c3.40204,1.43237,3.68079,1.63324,3.84943,3.00446c-1.8913-1.85376-4.02771-2.49902-6.47205-2.24872
	c-0.06982,0.62714-0.13293,1.19397-0.19604,1.76086c-0.0954-0.00385-0.19086-0.00763-0.28625-0.01141
	c-0.45313-1.76379-0.37811-3.75482-2.02399-5.06555c-0.68317,1.00806-1.32166,1.9502-2.11578,3.12183
	c-0.50012-0.61145-0.72797-1.01056-1.06152-1.27777c-1.81641-1.45465-4.00525-0.6601-4.49109,1.59802
	c-0.44165,2.05261,0.1875,3.73145,1.8429,4.96948c1.79211,1.34027,3.68756,2.4845,5.99817,2.74689
	c0.94659,0.10748,1.86456,0.47424,2.81116,0.57184c2.45056,0.25244,4.90723,0.46906,7.36682,0.6004
	c1.0661,0.05688,1.7879-0.50452,2.28522-1.55743c2.97424-6.29706,3.49475-12.76862,1.60461-19.36938
	c-3.64734,0.05103-5.92542,2.00629-7.258,5.24561c-0.09113,0.2215-0.20612,0.43542-0.27533,0.66339
	C126.43451,157.37427,125.91156,159.12677,125.38782,160.87195z M94.9837,200.44855
	c-0.10583,0.03125-0.21173,0.0625-0.31757,0.09381c0.24243,2.61707,0.37231,5.25067,0.75323,7.84747
	c0.59564,4.0611,1.30896,8.10724,2.07404,12.14044c0.46649,2.45911,1.02643,4.91058,1.73077,7.31079
	c0.43066,1.46765,1.31213,1.89703,2.86365,1.81677c1.88214-0.09735,3.01624-1.39795,3.97339-2.76678
	c3.31531-4.74158,3.9361-10.08618,3.32104-15.68042c-0.07513-0.68304-0.45343-0.83374-1.07947-1.00385
	c-4.74591-1.28961-9.12799-3.18976-11.91541-7.57611C95.92358,201.9007,95.45178,201.17578,94.9837,200.44855z M87.13519,124.64655
	c0.68469-0.19824,1.83405-0.40533,2.87213-0.86414c1.23523-0.54596,1.6535-1.57062,1.44104-2.8642
	c-0.24738-1.5061-1.37946-2.29541-3.43762-2.60883c-1.57239-0.23944-3.14905-0.54608-4.6709-1.00006
	c-2.4549-0.73242-3.53516-2.61261-3.7345-5.04688c-0.3454-4.2182,4.22101-7.677,7.88232-5.74133
	c0.98804,0.52228,2.01678,0.96735,3.02563,1.45044c1.61523,0.77356,3.18854,0.11511,3.74384-1.56873
	c0.67664-2.05176-0.56079-4.33691-2.72681-4.8288c-1.23932-0.28149-2.53406-0.50677-3.79456-0.46661
	c-2.30066,0.0733-4.74988-0.0838-6.86035,0.65057c-5.13831,1.78784-7.26605,5.86835-6.73444,11.57367
	C74.79126,120.31012,80.32813,123.66058,87.13519,124.64655z M136.6969,203.6095c-3.93286,2.67041-7.93372,4.42712-12.11041,5.78796
	c-0.80206,0.26129-1.15283,0.62891-0.98303,1.43927c0.69379,3.31079,1.29706,6.64459,2.12177,9.92261
	c0.82025,3.26013,2.81378,5.81702,5.52704,7.7428c0.94373,0.6698,2.14014,0.99011,3.23328,1.44043
	c0.70245,0.28937,1.0874-0.0625,1.37842-0.70148c0.7713-1.69318,0.58905-3.45825,0.33093-5.18579
	c-0.61212-4.09637-0.70374-8.17975-0.19861-12.29572C136.31641,209.15094,136.45355,206.51978,136.6969,203.6095z
	 M127.80139,89.0249c1.11505-2.53403,1.41315-5.13635,0.69421-7.83023c-1.36316-5.10767-6.40167-7.96365-11.7019-6.96078
	c-4.513,0.85391-7.7356,5.46274-7.80762,10.55875c-0.01678,1.18625,0.70892,1.84796,1.92102,1.82053
	c0.82733-0.01874,1.64563-0.29922,2.47577-0.36707c1.04102-0.08508,1.51868-0.56989,1.70251-1.61823
	c0.28009-1.59708,0.96008-3.04971,2.17157-4.18777c1.7265-1.62189,4.01288-1.43552,5.40002,0.48553
	c0.41241,0.5712,0.83362,1.2525,0.91229,1.92303c0.14648,1.24747,0.11835,2.52991,0.0199,3.78659
	c-0.06726,0.85812,0.07751,1.32874,1.00867,1.50861C125.64703,88.3465,126.66614,88.70511,127.80139,89.0249z M143.92242,182.72528
	c0,0.82263-0.02362,1.57465,0.00397,2.32483c0.13953,3.79858-0.27509,7.50024-1.84381,11.01343
	c-0.6983,1.56372-0.19702,2.44012,1.52563,2.65125c1.94153,0.23792,3.67273-0.35907,4.76373-1.94226
	c2.34558-3.40363,2.74329-7.13025,1.05426-10.92877C148.38251,183.49664,146.31793,182.41827,143.92242,182.72528z
	 M88.90137,117.7182c-0.30963-3.27814-0.35034-6.2912,1.54742-9.04822c-1.28339-0.58484-2.43805-1.11371-3.59503-1.63757
	c-1.65247-0.74829-3.22095-0.62146-4.57184,0.6189c-1.48108,1.35986-2.46454,3.00586-1.98517,5.10583
	c0.35791,1.56799,0.8598,3.19403,2.67059,3.67737C84.87524,116.94373,86.82977,117.2782,88.90137,117.7182z M107.69128,186.34851
	c0.08252,0.00702,0.16498,0.01404,0.2475,0.02112c0.16333-0.30426,0.34369-0.60065,0.48706-0.914
	c0.69696-1.52356,1.42773-3.03363,2.0661-4.58173c1.59619-3.87097,3.15875-7.75598,4.69922-11.64948
	c0.11475-0.2901-0.05377-0.69226-0.09058-1.04236c-0.30115,0.12683-0.64606,0.19672-0.89661,0.38934
	c-2.0863,1.60437-4.18341,3.19733-6.21057,4.87433c-0.5343,0.44208-1.18921,1.16785-1.18469,1.75873
	c0.02124,2.78589,0.22644,5.57196,0.42328,8.35394C107.29822,184.49457,107.53333,185.41882,107.69128,186.34851z
	 M129.12079,151.07251c-2.7923,0.23773-5.34711,0.4552-7.7326,0.65833c-0.30878,1.88245-0.60565,3.64539-0.87756,5.41211
	c-0.03253,0.21143,0.00562,0.48828,0.12207,0.659c0.70093,1.02704,1.4342,2.03186,2.26703,3.19885
	c0.4245-0.02167,1.09729-0.05597,1.88409-0.09607C125.76886,157.47034,126.34418,153.85321,129.12079,151.07251z
	 M85.12714,158.84113c-0.37732,2.01849-0.18805,3.8241,0.74408,5.51355c1.51862,2.75244,4.23523,3.07538,6.54865,0.96063
	c1.10071-1.00616,0.94165-3.0556-0.46979-3.7243c-0.84369-0.39972-1.79205-0.66187-2.71979-0.78235
	C87.65131,160.6037,85.87482,160.96466,85.12714,158.84113z M122.50989,87.46298c0.88654-1.9216,0.7699-4.25757-0.23499-5.82294
	c-0.91815-1.43024-2.38324-1.93509-3.68658-1.27039c-1.64636,0.83969-3.00922,3.55191-2.73395,5.41318
	c1.0957,0.22696,2.19287,0.4158,3.2691,0.68774C120.24054,86.75287,121.33734,87.1156,122.50989,87.46298z M128.01794,132.39307
	c0.99609,0.2262,1.9668,0.22656,2.315-0.63849c0.25616-0.63635,0.07147-1.54425-0.15594-2.25452
	c-0.22076-0.68933-0.87592-1.01416-1.71289-0.93109C129.42096,130.36725,129.37396,130.80011,128.01794,132.39307z
	 M127.52069,128.95056c-0.89807,1.08661-0.93054,1.70044-0.19379,2.75793
	C128.72168,130.95593,128.80701,130.04999,127.52069,128.95056z M141.56604,123.02826
	c0.81824-0.16028,1.66333-0.21344,1.91052-1.1557c0.18988-0.72394-0.02734-1.3703-0.62268-1.80103
	C142.42072,121.06604,142.02216,121.98102,141.56604,123.02826z M141.02991,121.63025
	c0.11676,0.03809,0.23346,0.07611,0.35016,0.1142c0.16742-0.6123,0.3349-1.22461,0.55878-2.04333
	C140.6817,120.198,140.82477,120.9043,141.02991,121.63025z"/>
<path d="M122.47418,48.24387c0,3.27045,0,6.42059,0,9.80643c1.2724,0,2.53564-0.00003,3.79889,0
	c1.15961,0.00003,2.32098-0.04108,3.47827,0.01013c1.63525,0.07233,2.75275-0.64169,3.44708-2.08762
	c0.13806-0.2876,0.28992-0.57034,0.40442-0.86731c0.98633-2.55884,0.84521-1.89322,3.39612-1.88971
	c0.70618,0.00098,1.00208,0.44846,0.94226,1.10327c-0.18158,1.98889-0.40692,3.97385-0.58099,5.96335
	c-0.07281,0.8324-0.56396,1.08725-1.28992,1.07932c-6.95306-0.07599-13.90607-0.15677-20.85913-0.23566
	c-0.69312-0.00784-1.28802-0.14325-1.35748-0.99936c-0.06226-0.76752,0.14984-1.35468,1.00964-1.48145
	c1.25629-0.18524,1.74274-0.94919,1.73334-2.16391c-0.04797-6.19528-0.05347-12.39105-0.13574-18.58582
	c-0.02417-1.8226-0.11896-1.81503-1.88385-2.37289c-0.33234-0.10504-0.64154-0.28323-0.99896-0.44461
	c-0.08063,0.05768-0.22424,0.23419-0.39899,0.27405c-1.90045,0.43338-2.79303,1.87558-3.48596,3.49213
	c-3.0495,7.11484-6.11627,14.22269-9.09052,21.36899c-0.48035,1.15411-1.08124,1.56613-2.28748,1.5647
	c-2.44153-0.00287-2.41241,0.0416-3.37311-2.17096c-2.86053-6.58789-5.73621-13.16928-8.62933-19.74289
	c-0.67938-1.54373-1.37451-3.09097-3.37726-3.3754c-0.82092-0.11661-0.67834-0.88086-0.65967-1.45828
	c0.02301-0.71243,0.53827-0.91556,1.15204-0.95059c1.27606-0.07285,2.55219-0.14658,3.8288-0.20798
	c2.0744-0.09976,4.15033-0.17215,6.22345-0.29373c0.73779-0.04324,1.17096,0.22617,1.22687,0.96017
	c0.05432,0.7124-0.03021,1.29575-0.94586,1.52057c-1.97607,0.48517-2.29688,0.99762-1.5332,2.87662
	c2.04218,5.02454,4.18689,10.00739,6.35815,15.16678c0.19904-0.33563,0.35651-0.53519,0.44586-0.7616
	c1.71454-4.34326,3.42706-8.68735,5.12329-13.03775c0.27454-0.70422,0.55438-1.42465,0.68372-2.16351
	c0.28186-1.61011-0.07501-2.08102-1.69885-2.36243c-0.70508-0.12219-1.19336-0.34485-1.22241-1.17905
	c-0.0307-0.88324,0.24359-1.31885,1.21381-1.3269c3.03583-0.02527,6.07092-0.12814,9.10675-0.16525
	c0.40552-0.00494,0.81427,0.1929,1.21973,0.3035c0.08569,0.02341,0.2168,0.12836,0.23718,0.10757
	c0.90771-0.92514,2.0542-0.4491,3.0683-0.44504c6.67352,0.02652,13.34674,0.12866,20.01996,0.21619
	c1.22906,0.01611,1.46698,0.24438,1.45087,1.49652c-0.021,1.63678-0.12134,3.27237-0.15997,4.90915
	c-0.01532,0.64993-0.35596,0.9126-0.94495,1.01398c-1.76392,0.30365-2.65271-0.10202-3.34021-1.75143
	c-0.78351-1.87967-2.05548-2.81583-4.15265-2.73389c-1.9939,0.07791-3.995-0.03278-5.99298-0.05054
	c-0.34845-0.00311-0.69739,0.04318-1.12604,0.07202c0,2.9364,0,5.79572,0,8.79819c1.72662,0,3.43378,0.02829,5.1394-0.0105
	c1.03986-0.02368,1.49054-0.78668,1.83044-1.64828c0.42493-1.07703,2.91895-1.64624,3.72101-0.8269
	c0.18683,0.19086,0.25452,0.57047,0.25262,0.8624c-0.01416,2.15784-0.06616,4.3154-0.09253,6.47321
	c-0.0108,0.88593-0.38275,1.34756-1.31934,1.26266c-0.35693-0.03235-0.72272-0.03723-1.07843,0.00128
	c-0.84485,0.09146-1.30084-0.23825-1.58093-1.07285c-0.55164-1.64386-0.89148-1.83298-2.62201-1.83823
	C125.37561,48.24048,123.98352,48.24387,122.47418,48.24387z M137.40747,40.00726c0-2.05127,0-4.01971,0-6.16092
	c-7.71118,0-15.36731,0-23.02881,0c-0.09351,0.89194-0.09351,0.89194,0.66101,1.129
	c1.76642,0.55499,2.08551,0.93652,2.10352,2.82217c0.03784,3.95734,0.03656,7.91504,0.05157,11.87262
	c0.00885,2.3158-0.00311,4.63193,0.03503,6.94724c0.02405,1.46115-0.61334,2.36987-2.05682,2.63394
	c-0.7514,0.13748-0.75,0.54477-0.49963,1.26865c7.27686,0,14.57257,0,21.99164,0c0.20313-2.14264,0.41199-4.34543,0.61987-6.53888
	c-2.3075-0.38-2.29755-0.37561-3.13043,1.51205c-0.24054,0.54523-0.52136,1.07999-0.84546,1.57953
	c-0.59723,0.92047-1.4411,1.53857-2.56232,1.55164c-2.94659,0.03439-5.89386,0.01163-8.89685,0.01163c0-3.77304,0-7.4198,0-11.11969
	c1.61182,0,3.13013,0.05502,4.6427-0.01434c1.78015-0.08163,3.01184,0.53256,3.57477,2.31702
	c0.08655,0.27435,0.50287,0.56903,0.8078,0.62323c0.56238,0.09998,1.15527,0.02856,1.82275,0.02856c0-2.61142,0-5.02396,0-7.47217
	c-0.7749,0-1.52777,0-2.31708,0c-0.19379,0.43866-0.29059,0.96466-0.59967,1.28732
	c-0.49823,0.52017-1.11023,1.24039-1.72021,1.28818c-2.04816,0.16043-4.1167,0.06097-6.20032,0.06097
	c0-3.41351,0-6.70895,0-10.03146c2.97052,0,5.83478-0.0238,8.69836,0.00897c1.70306,0.0195,2.81659,0.97543,3.53156,2.45535
	c0.20801,0.4306,0.33582,0.9115,0.60364,1.29776c0.19122,0.27582,0.53296,0.55997,0.8465,0.6138
	C136.11176,40.07748,136.71179,40.00726,137.40747,40.00726z M98.65796,56.06985c-0.89886-2.17627-1.67957-4.08563-2.4751-5.98877
	c-1.53809-3.67944-3.14771-7.33063-4.60297-11.04242c-0.82568-2.1062-0.33569-2.95163,1.75488-3.55206
	c0.72394-0.20789,0.87268-0.53726,0.52325-1.24295c-3.63306,0.18716-7.24969,0.37347-11.13348,0.57355
	c0.26349,0.50739,0.3822,1.04465,0.58459,1.07834c2.23047,0.37103,2.93298,2.16858,3.68829,3.88556
	c2.89178,6.57382,5.7569,13.15942,8.6261,19.74323c0.73303,1.68219,0.72235,1.65186,2.58771,1.61319
	c0.95435-0.01978,1.45538-0.38806,1.82452-1.3006c1.7655-4.36456,3.58826-8.70648,5.43811-13.03619
	c1.28516-3.00809,2.61963-5.99606,3.98761-8.96744c0.61029-1.32568,1.43439-2.48273,2.98596-2.91635
	c0.2796-0.07813,0.44031-0.58163,0.76727-1.04739c-3.06964,0-5.77917-0.00253-8.48865,0.00223
	c-0.5191,0.00092-1.04791-0.02216-1.55286,0.07086c-0.22736,0.0419-0.4895,0.31107-0.5744,0.53763
	c-0.04346,0.11612,0.23993,0.40475,0.42896,0.5419c0.14893,0.10806,0.38025,0.10065,0.57367,0.14969
	c1.70325,0.43195,2.29449,1.37012,1.9162,3.08554c-0.11145,0.50531-0.25214,1.01038-0.44067,1.49155
	C102.98212,45.09564,100.87531,50.43762,98.65796,56.06985z"/>
<path d="M207.7691,59.20004c0.28809-1.98871,0.70142-4.87192,1.12451-7.75366c0.34229-2.3309,0.71814-4.6571,1.03748-6.99109
	c0.22278-1.629,0.10999-1.82401-1.36377-2.48474c-0.78723-0.353-1.07788-0.853-0.85193-1.70578
	c0.22852-0.86179,0.82471-0.84311,1.4989-0.74121c2.96045,0.44742,5.92078,0.89487,8.8822,1.33566
	c0.7041,0.1048,1.24219,0.36847,1.18469,1.19827c-0.05225,0.75427-0.37219,1.21515-1.21899,1.34625
	c-1.83191,0.2836-1.97913,0.47229-2.26648,2.30588c-0.76038,4.85144-1.52722,9.70193-2.26172,14.55731
	c-0.49829,3.29333,0.76807,5.15488,4.02332,5.98572c0.61768,0.15762,1.24731,0.28482,1.87903,0.36771
	c2.83667,0.37213,4.8855-0.84845,5.6676-3.60776c0.5968-2.10526,0.96277-4.27933,1.36804-6.43469
	c0.56799-3.02042,1.08289-6.05087,1.60889-9.07901c0.28796-1.65747,0.18445-1.92145-1.33875-2.60938
	c-0.81458-0.36792-1.04858-0.83041-0.8092-1.68991c0.24146-0.86685,0.80981-0.87164,1.48499-0.74811
	c2.86584,0.52441,5.72949,1.06152,8.59705,1.57657c0.65771,0.11816,1.00269,0.42743,0.92493,1.12845
	c-0.07568,0.68188-0.2605,1.20084-1.08142,1.34125c-2.17419,0.37195-2.16431,0.39969-2.56958,2.5528
	c-0.78259,4.15741-1.55225,8.31741-2.36279,12.46939c-1.15503,5.91705-4.65344,8.72537-10.64514,8.2724
	c-2.28308-0.17258-4.59131-0.69083-6.77075-1.4082C209.55682,67.08282,207.74127,64.28354,207.7691,59.20004z M208.56219,40.07449
	c-0.11499,0.11734-0.22986,0.23465-0.34473,0.35199c0.25549,0.3284,0.44263,0.78546,0.77795,0.96329
	c1.58081,0.83853,1.84827,1.25201,1.5929,3.03827c-0.69519,4.86118-1.43506,9.71606-2.10657,14.58044
	c-0.59131,4.28403,1.3407,7.43292,5.41455,8.85922c2.39026,0.83685,4.85474,1.27591,7.40479,1.25693
	c4.95667-0.03693,7.87842-2.34198,8.8595-7.1889c0.91833-4.53711,1.72375-9.09692,2.61877-13.63895
	c0.37463-1.90149,0.81787-2.22382,2.66724-2.49966c0.35608-0.0531,0.66187-0.44437,0.99072-0.67963
	c-0.05554-0.12393-0.11108-0.24786-0.16663-0.3718c-3.1637-0.58365-6.32751-1.16733-9.48364-1.7496
	c-0.28418,0.99057-0.28418,0.99057,0.50256,1.40207c1.45374,0.76035,1.73267,1.15363,1.4834,2.74371
	c-0.48218,3.07501-1.03003,6.14032-1.59326,9.20181c-0.41138,2.23624-0.81152,4.4798-1.36304,6.68353
	c-0.54053,2.1604-1.84033,3.74637-4.14746,4.16089c-2.2345,0.40146-4.38489-0.05188-6.37952-1.08698
	c-1.5282-0.79309-2.35291-2.13251-2.45154-3.8624c-0.04309-0.75528-0.06799-1.52994,0.04675-2.27298
	c0.76147-4.93115,1.54138-9.85971,2.36243-14.78128c0.31323-1.87759,0.68958-2.22049,2.52478-2.45251
	c0.7605-0.09616,0.95874-0.39066,0.72131-1.13367C215.1745,41.08905,211.86835,40.58179,208.56219,40.07449z"/>
<path d="M163.18085,47.17026c1.79352-2.33743,3.43317-4.44931,5.039-6.58661c0.35541-0.47302,0.63953-1.01547,0.87085-1.56219
	c0.32471-0.76749,0.24982-1.41647-0.73248-1.64252c-0.79321-0.18256-0.97168-0.73923-0.8363-1.4614
	c0.14722-0.78564,0.64966-1.00903,1.39972-0.9425c2.46667,0.21875,4.93689,0.39755,7.40289,0.62302
	c0.58044,0.05307,1.26849,0.0834,1.28882,0.9371c0.01807,0.75854-0.09863,1.39606-1.0224,1.63644
	c-1.78265,0.46384-2.82178,1.91135-3.90057,3.22885c-2.45477,2.99796-4.84937,6.04565-7.23145,9.10199
	c-0.29309,0.37601-0.46875,0.91772-0.51361,1.39987c-0.17761,1.90851-0.2818,3.82385-0.41266,5.73672
	c-0.11755,1.71866,0.17224,2.20923,1.78857,2.76495c0.67181,0.23099,1.17297,0.51541,1.11194,1.31598
	c-0.05798,0.7605-0.29541,1.30118-1.23895,1.20468c-1.23108-0.12589-2.46954-0.17908-3.70471-0.26535
	c-2.03217-0.14191-4.06372-0.29309-6.09656-0.42361c-0.68488-0.04398-1.13837-0.25021-1.15076-1.05313
	c-0.01208-0.77917,0.17914-1.28912,1.05585-1.44083c1.95001-0.33746,2.17059-0.58923,2.3598-2.51404
	c0.1015-1.03275,0.01746-2.10074,0.24536-3.10077c0.57892-2.53986-0.2663-4.62381-1.63416-6.7085
	c-1.81543-2.76685-3.35406-5.71548-5.1745-8.4787c-0.7171-1.08856-1.82141-1.95114-2.84937-2.79489
	c-0.61462-0.50452-0.7713-1.08209-0.48663-1.66129c0.16992-0.34573,0.77014-0.69583,1.16394-0.68167
	c3.19226,0.11499,6.38129,0.31976,9.57172,0.48761c0.80029,0.04211,1.11139,0.44962,1.10681,1.23566
	c-0.00427,0.75098-0.19348,1.17307-1.06024,1.24686c-1.40161,0.11935-1.72607,0.58389-1.10962,1.76334
	C159.92188,41.38742,161.52625,44.18008,163.18085,47.17026z M166.57324,62.25287c0.44336-0.81674,0.02289-1.05267-0.58435-1.27063
	c-1.76862-0.63486-2.20441-1.23325-2.11566-3.11932c0.10321-2.19357,0.28741-4.38382,0.47125-6.57263
	c0.02795-0.33331,0.17456-0.70599,0.383-0.96747c2.81531-3.53207,5.59723-7.09357,8.51788-10.53708
	c0.79211-0.9339,2.03741-1.47522,3.0354-2.2475c0.31372-0.2428,0.49927-0.65131,0.89746-1.19373
	c-3.2027-0.27203-6.00909-0.51041-8.76013-0.74408c-0.42987,0.73068-0.17944,1.00565,0.4267,1.26239
	c1.11646,0.47296,1.36096,1.04419,0.91589,2.18964c-0.28571,0.73508-0.6701,1.45584-1.13403,2.0929
	c-1.22321,1.67972-2.51141,3.31216-3.77893,4.95947c-0.55463,0.72083-1.12189,1.43198-1.75317,2.23645
	c-1.76978-3.15286-3.52234-6.1521-5.14862-9.21829c-0.97064-1.83005-0.60052-2.56927,1.32861-2.99823
	c0.78229-0.17392,0.67218-0.56866,0.53369-1.15796c-3.49597-0.19141-6.94928-0.38046-10.40259-0.56952
	c-0.07178,0.0896-0.14362,0.1792-0.21539,0.2688c0.19061,0.31873,0.32843,0.68933,0.58142,0.94675
	c0.88129,0.89655,2.01801,1.61777,2.67004,2.65039c2.45203,3.88321,4.75854,7.85864,7.09296,11.81519
	c0.18451,0.31268,0.2464,0.74994,0.22681,1.12201c-0.1051,1.99405-0.22198,3.98865-0.3974,5.97751
	c-0.15887,1.80231-0.60486,2.98505-2.67816,3.23325c-0.27185,0.03253-0.49921,0.43686-0.74719,0.66901
	c0.29785,0.17749,0.58142,0.47247,0.89624,0.51083c1.02917,0.12546,2.06976,0.15717,3.10596,0.22531
	C162.16229,61.96243,164.38373,62.10873,166.57324,62.25287z"/>
<path d="M40.39642,63.37408c2.47455-0.35068,4.84509-0.65164,7.20221-1.03516c1.20239-0.19565,2.01221-0.97992,2.35754-2.14056
	c0.29462-0.99014,0.49585-2.01016,0.69861-3.02493c0.15631-0.78223,0.44806-1.24341,1.37933-1.3273
	c2.28284-0.20566,2.48212-0.78131,2.62103,2.19763c0.08368,1.79495,0.18408,3.58929,0.297,5.38263
	c0.05487,0.87061-0.26404,1.30902-1.18707,1.4267c-6.61536,0.84329-13.22546,1.72775-19.83826,2.59134
	c-1.34564,0.17572-1.72479-0.11292-1.81165-1.19388c-0.05695-0.70871,0.32068-1.03687,0.89789-1.2186
	c1.22162-0.38461,1.51825-1.21841,1.34302-2.41324c-0.72437-4.93854-1.40717-9.88315-2.11084-14.82474
	c-0.17438-1.22467-0.34613-2.4505-0.5611-3.66837c-0.27045-1.5318-0.44702-1.69836-1.98969-1.86972
	c-0.66119-0.07346-1.15643-0.28986-1.32007-0.98691c-0.19092-0.81348-0.08075-1.4014,0.93042-1.53854
	c3.12531-0.42389,6.24518-0.88736,9.36646-1.34027c0.69781-0.10126,1.15912,0.12622,1.33954,0.84973
	c0.17505,0.70203,0.06873,1.21576-0.66492,1.5708c-1.85596,0.89813-1.89984,0.92773-1.61523,3.1485
	c0.55328,4.31723,1.17401,8.62582,1.76813,12.93777C39.78735,58.99115,40.07904,61.08487,40.39642,63.37408z M32.72717,66.66089
	c0.12457,0.05252,0.24921,0.10504,0.37378,0.15756c7.02667-0.91953,14.05328-1.83905,21.16443-2.76965
	c-0.12872-2.58298-0.25317-5.08142-0.38348-7.69666c-0.88574,0.09613-1.65509,0.17963-2.34119,0.25406
	c-0.32184,1.33844-0.55518,2.51208-0.89117,3.65555c-0.44171,1.50342-1.44965,2.49258-3.01611,2.7439
	c-2.55182,0.40939-5.11578,0.74277-7.7876,1.12436c-0.14233-0.95432-0.27863-1.81015-0.39655-2.66849
	c-0.82587-6.0097-1.66241-12.01804-2.46228-18.03122c-0.2373-1.78342,0.09595-2.36139,1.72986-3.08847
	c0.67963-0.30246,0.82629-0.63266,0.38361-1.3248c-3.34045,0.46945-6.68561,0.93954-10.03076,1.40967
	c-0.05981,0.10873-0.11957,0.21747-0.17938,0.3262c0.26685,0.25833,0.50958,0.70673,0.8045,0.74423
	c1.94043,0.24667,2.3902,0.72556,2.7348,2.99197c0.37799,2.48618,0.74622,4.97385,1.10919,7.46228
	c0.50092,3.4346,1.03552,6.86514,1.46985,10.30826c0.203,1.6091,0.28363,2.6015-1.6507,3.37988
	C33.05908,65.7598,32.93311,66.30969,32.72717,66.66089z"/>
<path d="M83.30493,48.73785c-0.16974,5.18356-1.35327,9.52533-5.63647,12.23474c-4.49957,2.84625-9.41846,3.36169-14.49188,1.76453
	c-3.16492-0.99634-5.302-3.22876-6.55133-6.24506c-1.59778-3.85733-2.07178-7.86417-1.0481-11.95691
	c1.01221-4.04724,3.54803-6.81366,7.39777-8.35553c3.30542-1.32385,6.73755-1.62616,10.23639-1.00153
	c5.4093,0.9657,8.43585,4.36334,9.56195,9.58823C83.08319,46.2041,83.16968,47.69003,83.30493,48.73785z M82.57306,48.68719
	c-0.05841-0.60718-0.13007-1.7634-0.28662-2.90802c-0.73547-5.37659-3.91309-9.01672-8.98077-9.87503
	c-2.08942-0.35388-4.3045-0.30261-6.42419-0.07648c-5.69403,0.60748-9.81445,4.31259-10.84998,9.62216
	c-0.71405,3.66138-0.26294,7.255,1.16168,10.68298c1.40778,3.38745,3.91577,5.64145,7.55304,6.36038
	c1.62622,0.32144,3.34058,0.41153,4.99805,0.31528c3.33209-0.19351,6.4549-1.12003,8.97003-3.47263
	C81.63373,56.60504,82.54352,53.08649,82.57306,48.68719z"/>
<path d="M203.79437,49.8772c0.04443,2.62744-0.4325,5.16431-1.44067,7.59125c-1.88062,4.52725-5.30005,7.13589-10.12036,7.76767
	c-3.33386,0.43695-6.61975,0.0275-9.74371-1.31937c-3.15796-1.36154-5.30872-3.67862-6.27057-6.9722
	c-1.2796-4.38123-0.93463-8.72375,0.89294-12.87772c1.82147-4.14001,5.18939-6.41098,9.58801-7.07465
	c3.80432-0.57401,7.50647-0.00653,10.95898,1.72125c3.83142,1.91739,5.74841,5.16107,6.12793,9.36649
	C203.84064,48.67441,203.79437,49.27786,203.79437,49.8772z M190.04999,37.41953c-5.97913,0.15497-10.12207,2.0574-12.33948,6.94958
	c-1.73364,3.82501-2.03552,7.87729-0.98505,11.9519c0.87292,3.38577,2.98059,5.85324,6.28149,7.03998
	c1.85504,0.66693,3.8443,1.15881,5.80402,1.30075c6.57983,0.47653,11.62708-2.55688,13.50244-9.13971
	c0.41284-1.44925,0.70142-2.96036,0.82397-4.46121c0.50708-6.20975-2.01575-10.95929-8.36707-12.75891
	C192.98041,37.79477,191.09943,37.60947,190.04999,37.41953z"/>
<path d="M14.46301,42.08701c0.24042,0.29892,0.63751,0.63361,0.82092,1.06015c0.23877,0.55524,0.09198,1.05908-0.52728,1.39923
	c-1.90826,1.0481-1.93042,1.06952-1.56879,3.13336c1.02606,5.85535,2.07056,11.70752,3.12823,17.55725
	c0.32843,1.81671,0.50183,1.99161,2.276,2.15567c0.85193,0.0788,1.04181,0.56876,1.12384,1.2648
	c0.09045,0.767-0.30701,1.08878-0.99316,1.21414c-2.98242,0.54495-5.96204,1.10577-8.94623,1.64063
	c-0.52203,0.09357-1.03101,0.10977-1.19177-0.62946c-0.1507-0.69299-0.38623-1.41479,0.49274-1.72156
	c1.987-0.69342,1.68341-1.53583,1.39996-3.14227C9.4585,60.2446,8.35864,54.48434,7.25885,48.72455
	c-0.39105-2.04819-0.45551-2.11755-2.49774-2.34164c-0.88196-0.0968-1.07611-0.67966-1.09253-1.29633
	c-0.00977-0.36551,0.33679-1.0141,0.61847-1.07202C7.56812,43.33957,10.86731,42.75287,14.46301,42.08701z M4.39014,44.61203
	c-0.17908,0.93033,0.26178,1.09592,0.91278,1.16492c1.70428,0.18057,2.00592,0.4614,2.44281,2.09851
	c0.0719,0.26929,0.14423,0.53946,0.19519,0.81314c1.08777,5.8414,2.18365,11.68134,3.25165,17.5264
	c0.36395,1.99213,0.05664,2.77463-1.53967,3.39774c-0.66705,0.26038-0.63116,0.69339-0.23993,1.27124
	c3.21991-0.58719,6.42194-1.17111,9.61969-1.75427c-0.14777-0.98907-0.14398-1.05908-0.94421-1.10263
	c-1.39276-0.07578-2.08392-0.81604-2.31488-2.1275c-0.2489-1.41336-0.54175-2.81894-0.79175-4.23212
	c-0.86102-4.86752-1.74225-9.73184-2.5498-14.60831c-0.28149-1.70004,0.01843-2.16516,1.58392-2.91599
	c0.66089-0.31699,0.82819-0.66159,0.37695-1.3486C11.08514,43.39557,7.75812,44.00009,4.39014,44.61203z"/>
<path class="st1" d="M128.76257,127.56409c-1.94989,0.61847-2.78577,1.60425-2.69684,3.09979
	c0.09888,1.66388,0.7746,2.26526,3.23523,2.86896c-0.65833,1.32098-1.47064,2.58691-1.93335,3.96979
	c-0.60303,1.80237-1.08765,3.67651-1.33618,5.55768c-0.35486,2.68628,0.26746,5.15503,2.77142,7.19318
	c-2.59332,0.30774-4.87299,0.60468-7.16095,0.80792c-0.22284,0.01984-0.63354-0.50085-0.72577-0.83459
	c-0.73114-2.64435-2.00177-4.96191-4.02173-6.83459c-2.40826-2.23273-5.30011-3.07239-8.51587-2.71747
	c-1.89734,0.20941-3.45453,1.1889-4.73218,2.60254c-0.23529,0.26031-0.47284,0.51855-0.66486,0.72894
	c-1.12347-0.89142-2.17926-1.73462-3.24103-2.57013c-1.42133-1.11841-3.09406-1.62286-4.82635-2.00543
	c-0.44751-0.09882-0.96564-0.25995-1.2691-0.57056c-3.63586-3.72192-6.12463-8.15662-7.94836-12.99237
	c-0.0542-0.1438-0.04596-0.31122-0.05792-0.40063c1.22778-0.22021,2.44128-0.36676,3.61597-0.66565
	c1.62537-0.41357,2.90601-1.35651,3.04016-3.13525c0.12201-1.61719-0.56677-2.94678-2.11792-3.71844
	c-0.2464-0.12262-0.52734-0.41718-0.57037-0.67004c-0.43927-2.58069-0.21802-5.09106,0.90771-7.48987
	c0.25909-0.55212,0.58624-0.83014,1.26965-0.8504c2.03552-0.06036,3.06116-0.96588,3.19873-2.98352
	c0.17212-2.52484-0.62329-4.28973-3.08972-5.00317c-0.49658-0.14362-0.99091-0.2951-1.66254-0.49561
	c0.4035-0.77185,0.75879-1.50006,1.15637-2.20435c3.44244-6.09778,8.7019-9.88245,15.29755-11.92621
	c0.85486-0.26489,1.85522-0.7001,2.42432,0.62503c0.1106,0.25751,0.74988,0.38202,1.1521,0.39792
	c0.59235,0.0235,1.21851-0.01389,1.78198-0.18475c3.53052-1.07068,6.88281-0.20441,10.17938,0.95709
	c2.70404,0.95273,5.43652,1.8942,7.99481,3.16583c1.61078,0.8006,3.0036,2.11285,4.35632,3.34674
	c6.1734,5.63086,9.50391,12.83466,11.29376,20.8457c0.31226,1.39758,0.43274,2.84314,0.56555,4.27362
	c0.08002,0.86243,0.41003,1.35736,1.28021,1.612c1.51508,0.4433,2.93903,1.08472,3.73175,2.59515
	c0.0675,0.12866,0.11005,0.27045,0.24518,0.60938c-2.36102-1.57825-4.8045-2.09302-7.5061-1.9115
	c0.45752-1.44257,0.22424-2.62-0.9718-3.46271c-0.79089-0.55725-1.30023-0.48688-2.74664,0.29187
	c-0.17389-0.48584-0.34991-0.95728-0.5119-1.43353c-1.01678-2.99011-2.45569-5.73328-4.75671-7.94763
	c-1.97809-1.90356-4.37531-2.92786-7.10315-3.08618c-2.73889-0.159-4.65997,1.12415-5.84448,3.56708
	c-2.14728,4.42841-1.06311,9.01935,2.2749,12.72589c1.09503,1.21594,2.32672,2.30859,3.49219,3.46143
	C128.26367,127.01801,128.49493,127.27954,128.76257,127.56409z"/>
<path class="st1" d="M136.47644,157.47437c2.03082,7.14178,5.18475,13.93213,6.16901,21.29718
	c0.75256,5.63086,1.03748,11.29517-1.16528,16.78949c-1.47247,3.67267-3.86548,6.53381-7.1272,8.64142
	c-4.06097,2.62402-8.4978,4.44257-13.23602,5.43146c-1.55255,0.32404-3.16779,0.35461-4.75641,0.49664
	c-0.87402,0.07813-1.45563-0.32922-1.99347-1.04254c-3.2066-4.25305-4.92188-9.1084-5.88751-14.27539
	c-0.19061-1.01996-0.3302-2.05231-0.43585-3.08484c-0.21948-2.14417,0.11005-4.16626,1.01715-6.1709
	c2.07477-4.58508,4.01398-9.23193,5.97699-13.86694c0.38611-0.91168,0.63141-1.883,0.9527-2.86035
	c3.98334,1.47211,8.08069,2.27002,12.26447,2.60968c1.02112,0.08282,2.07623-0.0141,3.09229-0.17554
	c0.97321-0.15466,1.68475-0.67841,2.16278-1.6698C135.36133,165.75482,136.45367,161.75562,136.47644,157.47437z"/>
<path class="st2" d="M102.82391,144.89008c0.88672-0.8219,1.64404-1.71948,2.57983-2.35364
	c2.55719-1.73309,5.36987-1.61108,8.03015-0.43719c7.20972,3.18146,8.81281,12.38269,4.64093,18.15137
	c-0.34076-0.25702-0.66785-0.53503-1.02454-0.76752c-1.94586-1.26849-4.09473-0.57556-4.85248,1.60706
	c-0.74677,2.15112-0.34039,4.09674,1.22467,5.77472c0.21509,0.23071,0.45575,0.4375,0.81433,0.77893
	c-1.30811,1.05408-2.52441,2.12897-3.83618,3.0708c-2.49585,1.79211-5.03265,3.5285-7.58478,5.23987
	c-0.55243,0.37042-1.22772,0.57849-1.87006,0.78961c-1.20233,0.39526-2.22675,0.17444-3.14655-0.7995
	c-2.36066-2.49957-4.78534-4.93866-7.17865-7.40759c-0.29974-0.3092-0.56427-0.65265-0.81708-0.94751
	c0.90808-0.49445,1.78839-0.91528,2.60864-1.43158c2.25085-1.41687,2.13739-4.31403-0.31537-5.38367
	c-1.1601-0.50598-2.54535-0.64319-3.83331-0.66431c-1.13898-0.01874-1.84735-0.34656-2.39807-1.34302
	c-3.07422-5.56213-2.7326-12.28033,2.06879-16.72894c1.98035-1.83484,4.27295-2.38733,6.87457-1.89282
	c2.94482,0.55969,5.28772,2.16028,7.34967,4.24731c0.13953,0.1413,0.26746,0.29761,0.42316,0.41803
	C102.66736,144.87677,102.79968,144.88287,102.82391,144.89008z"/>
<path class="st3" d="M126.40918,144.59393c0.17603-4.84088,1.85974-8.46204,4.24951-11.79388
	c1.16693-1.62701,1.28906-2.33765,0.09882-4.026c-0.61731-0.87561-1.36542-1.66852-2.11682-2.43793
	c-1.11658-1.14325-2.35077-2.17566-3.42468-3.35559c-2.87482-3.15863-4.20496-6.74646-2.78381-11.00696
	c1.16833-3.50256,3.6814-4.8559,7.29108-4.00446c3.00409,0.70868,5.22571,2.44818,6.92749,4.96887
	c1.93597,2.86755,2.97711,6.07623,3.72266,9.40906c0.08661,0.38721,0.1366,0.82697,0.36017,1.12488
	c0.17151,0.22858,0.638,0.4425,0.89075,0.37103c2.25232-0.63715,4.47632-0.60168,6.72614,0.02411
	c1.52802,0.42493,2.76154,1.23438,3.68848,2.50336c0.19714,0.2699,0.32538,0.61755,0.39539,0.94843
	c0.4245,2.00696,0.23309,3.98865-0.45154,5.89905c-3.08594,8.61145-9.16779,13.81549-18.06818,15.77972
	c-1.01318,0.22363-2.02673,0.44635-3.04401,0.6499c-1.55389,0.31091-2.61292-0.18573-3.39655-1.57355
	C126.75128,146.79388,126.31805,145.44171,126.40918,144.59393z M143.99304,130.6731
	c-0.10059-1.49121-1.2688-2.57178-2.54828-2.16736c-1.62402,0.51331-2.8891,1.58929-3.55896,3.15546
	c-0.22369,0.52295-0.15009,1.49084,0.20197,1.85809c0.39752,0.41467,1.34937,0.65912,1.90411,0.48383
	c1.03339-0.32654,2.02814-0.91437,2.89325-1.58221C143.39838,132.02472,143.63312,131.26782,143.99304,130.6731z
	 M145.23273,137.60919c0.25397,0.06433,0.46118,0.07349,0.62024,0.16565c0.37964,0.21997,1.01965,0.46045,1.03717,0.72662
	c0.02716,0.41333-0.27423,1.08588-0.61743,1.23688c-0.73315,0.32251-1.5799,0.39478-2.38544,0.54016
	c-0.26892,0.04858-0.55396,0.00769-1.06244,0.00769c1.0481,1.12378,2.06592,0.77197,3.01807,0.48688
	c0.90778-0.27179,1.71851-0.77271,1.84094-1.83557c0.12292-1.06744-0.59753-1.55927-1.52307-1.85181
	c0.13043-0.77252,0.474-1.64948-0.73035-1.76514c-1.11719-0.1073-2.22772,1.28113-1.97675,2.52637
	c0.59204-0.78967,0.84186-1.90143,2.2652-1.95746C145.55188,136.48016,145.41254,136.97314,145.23273,137.60919z
	 M144.11749,126.50537c-3.03186-1.4715-10.2262,3.92285-10.0603,7.25055
	C136.17548,129.69153,139.24847,127.06354,144.11749,126.50537z"/>
<path class="st1" d="M114.10339,209.82031c-5.16638,0.41113-9.78082-1.01575-13.78961-4.02325
	c-1.61139-1.20886-2.93939-2.94897-4.01697-4.68304c-2.05157-3.30164-3.64233-6.89893-4.18774-10.75787
	c-0.76569-5.41705-0.64551-10.83899,1.33917-16.06354c0.1358-0.35742,0.32056-0.69629,0.63373-1.36816
	c1.17413,1.26398,2.25903,2.31726,3.20715,3.48193c1.14569,1.40729,2.56146,1.56281,4.09393,0.9978
	c1.18994-0.43866,2.30542-1.08179,3.44641-1.64935c0.37842-0.18817,0.73315-0.42395,1.16016-0.67395
	c0.10925,2.21191,0.17639,4.27661,0.32678,6.33521c0.08405,1.15131,0.17719,2.32928,0.49097,3.43121
	c0.8429,2.95941,0.42798,6.02625,0.91101,9.01471c0.91101,5.63635,2.64752,10.92902,6.13654,15.53943
	C113.94641,209.52228,114.01129,209.66333,114.10339,209.82031z"/>
<path class="st1" d="M125.38782,160.87195c0.52374-1.74518,1.04669-3.49768,1.57825-5.2475
	c0.06921-0.22797,0.1842-0.44189,0.27533-0.66339c1.33258-3.23932,3.61066-5.19458,7.258-5.24561
	c1.89014,6.60077,1.36963,13.07233-1.60461,19.36938c-0.49731,1.05292-1.21912,1.61432-2.28522,1.55743
	c-2.45959-0.13135-4.91626-0.34796-7.36682-0.6004c-0.94659-0.0976-1.86456-0.46436-2.81116-0.57184
	c-2.31061-0.26239-4.20605-1.40662-5.99817-2.74689c-1.6554-1.23804-2.28455-2.91687-1.8429-4.96948
	c0.48584-2.25812,2.67468-3.05267,4.49109-1.59802c0.33356,0.26721,0.5614,0.66632,1.06152,1.27777
	c0.79413-1.17163,1.43262-2.11377,2.11578-3.12183c1.64587,1.31073,1.57086,3.30176,2.02399,5.06555
	c0.0954,0.00378,0.19086,0.00757,0.28625,0.01141c0.06311-0.56689,0.12622-1.13373,0.19604-1.76086
	c2.44434-0.25031,4.58075,0.39496,6.47205,2.24872C129.0686,162.50519,128.78986,162.30432,125.38782,160.87195z"/>
<path class="st1" d="M94.9837,200.44855c0.46808,0.72723,0.93988,1.45215,1.40369,2.18213
	c2.78741,4.38635,7.16949,6.2865,11.91541,7.57611c0.62604,0.1701,1.00433,0.3208,1.07947,1.00385
	c0.61505,5.59424-0.00574,10.93884-3.32104,15.68042c-0.95715,1.36884-2.09125,2.66943-3.97339,2.76678
	c-1.55151,0.08026-2.43298-0.34912-2.86365-1.81677c-0.70435-2.40021-1.26428-4.85168-1.73077-7.31079
	c-0.76508-4.0332-1.47839-8.07935-2.07404-12.14044c-0.38092-2.5968-0.5108-5.23041-0.75323-7.84747
	C94.77197,200.51105,94.87787,200.4798,94.9837,200.44855z"/>
<path class="st1" d="M87.13519,124.64655c-6.80707-0.98596-12.34393-4.33643-12.9942-11.31488
	c-0.53162-5.70532,1.59613-9.78583,6.73444-11.57367c2.11047-0.73438,4.55969-0.57727,6.86035-0.65057
	c1.2605-0.04016,2.55524,0.18512,3.79456,0.46661c2.16602,0.49188,3.40344,2.77704,2.72681,4.8288
	c-0.5553,1.68384-2.1286,2.34229-3.74384,1.56873c-1.00885-0.48309-2.0376-0.92816-3.02563-1.45044
	c-3.66132-1.93567-8.22772,1.52313-7.88232,5.74133c0.19934,2.43427,1.2796,4.31445,3.7345,5.04688
	c1.52185,0.45398,3.09851,0.76062,4.6709,1.00006c2.05817,0.31342,3.19025,1.10272,3.43762,2.60883
	c0.21246,1.29358-0.20581,2.31824-1.44104,2.8642C88.96924,124.24121,87.81989,124.4483,87.13519,124.64655z"/>
<path class="st1" d="M136.6969,203.6095c-0.24335,2.91028-0.38049,5.54144-0.70062,8.15009
	c-0.50513,4.11597-0.41351,8.19934,0.19861,12.29572c0.25812,1.72754,0.44037,3.49261-0.33093,5.18579
	c-0.29102,0.63898-0.67596,0.99084-1.37842,0.70148c-1.09314-0.45032-2.28955-0.77063-3.23328-1.44043
	c-2.71326-1.92578-4.70679-4.48267-5.52704-7.7428c-0.82471-3.27802-1.42798-6.61182-2.12177-9.92261
	c-0.1698-0.81036,0.18097-1.17798,0.98303-1.43927C128.76318,208.03662,132.76404,206.27991,136.6969,203.6095z"/>
<path class="st1" d="M127.80139,89.0249c-1.13525-0.31979-2.15436-0.67841-3.20355-0.88104
	c-0.93115-0.17987-1.07593-0.65048-1.00867-1.50861c0.09845-1.25668,0.12659-2.53912-0.0199-3.78659
	c-0.07867-0.67053-0.49988-1.35184-0.91229-1.92303c-1.38715-1.92105-3.67352-2.10742-5.40002-0.48553
	c-1.21149,1.13806-1.89148,2.5907-2.17157,4.18777c-0.18384,1.04834-0.6615,1.53314-1.70251,1.61823
	c-0.83014,0.06784-1.64844,0.34833-2.47577,0.36707c-1.2121,0.02744-1.93781-0.63428-1.92102-1.82053
	c0.07202-5.09601,3.29462-9.70483,7.80762-10.55875c5.30023-1.00287,10.33875,1.85312,11.7019,6.96078
	C129.21454,83.88855,128.91644,86.49088,127.80139,89.0249z"/>
<path class="st1" d="M143.92242,182.72528c2.39551-0.30701,4.46008,0.77136,5.50378,3.11847
	c1.68903,3.79852,1.29132,7.52515-1.05426,10.92877c-1.091,1.58319-2.8222,2.18018-4.76373,1.94226
	c-1.72266-0.21112-2.22394-1.08752-1.52563-2.65125c1.56873-3.51318,1.98334-7.21484,1.84381-11.01343
	C143.8988,184.29993,143.92242,183.54791,143.92242,182.72528z"/>
<path class="st3" d="M88.90137,117.7182c-2.07159-0.44-4.02612-0.77448-5.93402-1.28369
	c-1.81079-0.48334-2.31268-2.10938-2.67059-3.67737c-0.47937-2.09998,0.50409-3.74597,1.98517-5.10583
	c1.35089-1.24036,2.91937-1.36719,4.57184-0.6189c1.15698,0.52386,2.31165,1.05273,3.59503,1.63757
	C88.55103,111.427,88.59174,114.44006,88.90137,117.7182z"/>
<path class="st4" d="M107.69128,186.34851c-0.15796-0.92969-0.39307-1.85394-0.45929-2.7901
	c-0.19684-2.78198-0.40204-5.56805-0.42328-8.35394c-0.00452-0.59088,0.65039-1.31665,1.18469-1.75873
	c2.02716-1.677,4.12427-3.26996,6.21057-4.87433c0.25055-0.19263,0.59546-0.26251,0.89661-0.38934
	c0.0368,0.3501,0.20532,0.75226,0.09058,1.04236c-1.54047,3.89349-3.10303,7.7785-4.69922,11.64948
	c-0.63837,1.5481-1.36914,3.05817-2.0661,4.58173c-0.14337,0.31335-0.32373,0.60974-0.48706,0.914
	C107.85626,186.36255,107.7738,186.35553,107.69128,186.34851z"/>
<path class="st1" d="M129.12079,151.07251c-2.77661,2.7807-3.35193,6.39783-4.33698,9.83221
	c-0.7868,0.0401-1.45959,0.0744-1.88409,0.09607c-0.83282-1.16699-1.5661-2.17181-2.26703-3.19885
	c-0.11646-0.17072-0.1546-0.44757-0.12207-0.659c0.27191-1.76672,0.56879-3.52966,0.87756-5.41211
	C123.77368,151.52771,126.32849,151.31024,129.12079,151.07251z"/>
<path class="st1" d="M85.12714,158.84113c0.74768,2.12354,2.52417,1.76257,4.10315,1.96753
	c0.92773,0.12048,1.8761,0.38263,2.71979,0.78235c1.41144,0.6687,1.5705,2.71814,0.46979,3.7243
	c-2.31342,2.11475-5.03003,1.79181-6.54865-0.96063C84.93909,162.66522,84.74982,160.85962,85.12714,158.84113z"/>
<path class="st3" d="M122.50989,87.46298c-1.17255-0.34738-2.26935-0.71011-3.38641-0.9924
	c-1.07623-0.27194-2.1734-0.46078-3.2691-0.68774c-0.27527-1.86127,1.08759-4.57349,2.73395-5.41318
	c1.30334-0.6647,2.76843-0.15985,3.68658,1.27039C123.27979,83.20541,123.39642,85.54138,122.50989,87.46298z"/>
<path class="st5" d="M128.01794,132.39307c1.35602-1.59296,1.40302-2.02582,0.44617-3.8241
	c0.83698-0.08307,1.49213,0.24176,1.71289,0.93109c0.22742,0.71027,0.41211,1.61816,0.15594,2.25452
	C129.98474,132.61963,129.01404,132.61926,128.01794,132.39307z"/>
<path class="st6" d="M127.52069,128.95056c1.28632,1.09943,1.20099,2.00537-0.19379,2.75793
	C126.59015,130.651,126.62262,130.03717,127.52069,128.95056z"/>
<path class="st5" d="M141.56604,123.02826c0.45612-1.04724,0.85468-1.96222,1.28784-2.95673
	c0.59534,0.43073,0.81256,1.07709,0.62268,1.80103C143.22937,122.81482,142.38428,122.86798,141.56604,123.02826z"/>
<path class="st6" d="M141.02991,121.63025c-0.20514-0.72595-0.34821-1.43225,0.90894-1.92914
	c-0.22388,0.81873-0.39136,1.43103-0.55878,2.04333C141.26337,121.70636,141.14667,121.66833,141.02991,121.63025z"/>
<path class="st2" d="M137.40747,40.00726c-0.69568,0-1.29572,0.07022-1.86688-0.02783
	c-0.31354-0.05383-0.65527-0.33798-0.8465-0.6138c-0.26782-0.38626-0.39563-0.86716-0.60364-1.29776
	c-0.71497-1.47992-1.82849-2.43585-3.53156-2.45535c-2.86359-0.03278-5.72784-0.00897-8.69836-0.00897
	c0,3.32251,0,6.61795,0,10.03146c2.08362,0,4.15216,0.09946,6.20032-0.06097c0.60999-0.04779,1.22198-0.76801,1.72021-1.28818
	c0.30908-0.32266,0.40588-0.84866,0.59967-1.28732c0.78931,0,1.54218,0,2.31708,0c0,2.44821,0,4.86075,0,7.47217
	c-0.66748,0-1.26038,0.07141-1.82275-0.02856c-0.30493-0.0542-0.72125-0.34888-0.8078-0.62323
	c-0.56293-1.78445-1.79462-2.39865-3.57477-2.31702c-1.51257,0.06937-3.03088,0.01434-4.6427,0.01434
	c0,3.69989,0,7.34665,0,11.11969c3.00299,0,5.95026,0.02277,8.89685-0.01163c1.12122-0.01306,1.96509-0.63116,2.56232-1.55164
	c0.3241-0.49954,0.60492-1.0343,0.84546-1.57953c0.83289-1.88766,0.82294-1.89206,3.13043-1.51205
	c-0.20789,2.19345-0.41675,4.39624-0.61987,6.53888c-7.41907,0-14.71478,0-21.99164,0
	c-0.25037-0.72388-0.25177-1.13116,0.49963-1.26865c1.44348-0.26407,2.08087-1.17279,2.05682-2.63394
	c-0.03815-2.31531-0.02618-4.63144-0.03503-6.94724c-0.01501-3.95758-0.01373-7.91528-0.05157-11.87262
	c-0.01801-1.88565-0.3371-2.26718-2.10352-2.82217c-0.75452-0.23706-0.75452-0.23706-0.66101-1.129c7.6615,0,15.31763,0,23.02881,0
	C137.40747,35.98755,137.40747,37.95599,137.40747,40.00726z"/>
<path class="st2" d="M98.65796,56.06985c2.21735-5.63223,4.32416-10.97421,6.41901-16.32092
	c0.18854-0.48117,0.32922-0.98624,0.44067-1.49155c0.3783-1.71542-0.21295-2.65359-1.9162-3.08554
	c-0.19342-0.04904-0.42474-0.04163-0.57367-0.14969c-0.18903-0.13715-0.47241-0.42578-0.42896-0.5419
	c0.0849-0.22656,0.34705-0.49573,0.5744-0.53763c0.50494-0.09302,1.03375-0.06995,1.55286-0.07086
	c2.70947-0.00476,5.41901-0.00223,8.48865-0.00223c-0.32697,0.46576-0.48767,0.96927-0.76727,1.04739
	c-1.55157,0.43362-2.37567,1.59067-2.98596,2.91635c-1.36798,2.97137-2.70245,5.95935-3.98761,8.96744
	c-1.84985,4.32971-3.67261,8.67163-5.43811,13.03619c-0.36914,0.91254-0.87018,1.28082-1.82452,1.3006
	c-1.86536,0.03867-1.85468,0.069-2.58771-1.61319c-2.8692-6.5838-5.73431-13.1694-8.6261-19.74323
	c-0.75531-1.71698-1.45782-3.51453-3.68829-3.88556c-0.20239-0.03369-0.32111-0.57095-0.58459-1.07834
	c3.88379-0.20007,7.50043-0.38638,11.13348-0.57355c0.34943,0.70569,0.20068,1.03506-0.52325,1.24295
	c-2.09058,0.60043-2.58057,1.44586-1.75488,3.55206c1.45526,3.71179,3.06488,7.36298,4.60297,11.04242
	C96.97839,51.98422,97.75909,53.89359,98.65796,56.06985z"/>
<path class="st2" d="M208.56219,40.07449c3.30615,0.50729,6.6123,1.01456,9.93127,1.5238
	c0.23743,0.74301,0.03918,1.03751-0.72131,1.13367c-1.83521,0.23203-2.21155,0.57492-2.52478,2.45251
	c-0.82104,4.92157-1.60095,9.85013-2.36243,14.78128c-0.11475,0.74304-0.08984,1.5177-0.04675,2.27298
	c0.09863,1.72989,0.92334,3.06931,2.45154,3.8624c1.99463,1.0351,4.14502,1.48843,6.37952,1.08698
	c2.30713-0.41452,3.60693-2.00049,4.14746-4.16089c0.55151-2.20374,0.95166-4.4473,1.36304-6.68353
	c0.56323-3.06149,1.11108-6.1268,1.59326-9.20181c0.24927-1.59009-0.02966-1.98337-1.4834-2.74371
	c-0.78674-0.4115-0.78674-0.4115-0.50256-1.40207c3.15613,0.58228,6.31995,1.16595,9.48364,1.7496
	c0.05554,0.12393,0.11108,0.24786,0.16663,0.3718c-0.32886,0.23526-0.63464,0.62653-0.99072,0.67963
	c-1.84937,0.27585-2.2926,0.59818-2.66724,2.49966c-0.89502,4.54202-1.70044,9.10184-2.61877,13.63895
	c-0.98108,4.84692-3.90283,7.15198-8.8595,7.1889c-2.55005,0.01898-5.01453-0.42007-7.40479-1.25693
	c-4.07385-1.4263-6.00586-4.5752-5.41455-8.85922c0.67151-4.86438,1.41138-9.71927,2.10657-14.58044
	c0.25537-1.78625-0.01208-2.19974-1.5929-3.03827c-0.33533-0.17783-0.52246-0.63489-0.77795-0.96329
	C208.33234,40.30914,208.4472,40.19183,208.56219,40.07449z"/>
<path class="st2" d="M166.57324,62.25287c-2.18951-0.14413-4.41095-0.29044-6.63232-0.43655
	c-1.03619-0.06815-2.07678-0.09985-3.10596-0.22531c-0.31482-0.03836-0.59839-0.33334-0.89624-0.51083
	c0.24799-0.23215,0.47534-0.63647,0.74719-0.66901c2.0733-0.2482,2.51929-1.43094,2.67816-3.23325
	c0.17542-1.98886,0.2923-3.98346,0.3974-5.97751c0.01959-0.37207-0.0423-0.80933-0.22681-1.12201
	c-2.33441-3.95654-4.64093-7.93198-7.09296-11.81519c-0.65204-1.03262-1.78876-1.75385-2.67004-2.65039
	c-0.25299-0.25742-0.39081-0.62802-0.58142-0.94675c0.07178-0.0896,0.14362-0.1792,0.21539-0.2688
	c3.45331,0.18906,6.90662,0.37811,10.40259,0.56952c0.13849,0.58929,0.2486,0.98404-0.53369,1.15796
	c-1.92914,0.42896-2.29926,1.16818-1.32861,2.99823c1.62628,3.06619,3.37885,6.06543,5.14862,9.21829
	c0.63129-0.80447,1.19855-1.51563,1.75317-2.23645c1.26752-1.64731,2.55573-3.27975,3.77893-4.95947
	c0.46393-0.63705,0.84833-1.35782,1.13403-2.0929c0.44507-1.14545,0.20056-1.71667-0.91589-2.18964
	c-0.60614-0.25674-0.85657-0.53171-0.4267-1.26239c2.75104,0.23367,5.55743,0.47205,8.76013,0.74408
	c-0.39819,0.54242-0.58374,0.95093-0.89746,1.19373c-0.99799,0.77228-2.24329,1.3136-3.0354,2.2475
	c-2.92065,3.44351-5.70258,7.005-8.51788,10.53708c-0.20844,0.26147-0.35504,0.63416-0.383,0.96747
	c-0.18384,2.18881-0.36804,4.37906-0.47125,6.57263c-0.08875,1.88608,0.34705,2.48447,2.11566,3.11932
	C166.59613,61.2002,167.0166,61.43613,166.57324,62.25287z"/>
<path class="st2" d="M32.72717,66.66089c0.20593-0.3512,0.33191-0.90109,0.6308-1.02136
	c1.93433-0.77838,1.8537-1.77078,1.6507-3.37988c-0.43433-3.44312-0.96893-6.87366-1.46985-10.30826
	c-0.36298-2.48843-0.7312-4.9761-1.10919-7.46228c-0.3446-2.26642-0.79437-2.7453-2.7348-2.99197
	c-0.29492-0.03751-0.53766-0.4859-0.8045-0.74423c0.05981-0.10873,0.11957-0.21747,0.17938-0.3262
	c3.34515-0.47012,6.69031-0.94022,10.03076-1.40967c0.44269,0.69214,0.29602,1.02234-0.38361,1.3248
	c-1.63391,0.72708-1.96716,1.30505-1.72986,3.08847c0.79987,6.01318,1.63641,12.02151,2.46228,18.03122
	c0.11792,0.85834,0.25421,1.71417,0.39655,2.66849c2.67181-0.38159,5.23578-0.71497,7.7876-1.12436
	c1.56647-0.25131,2.5744-1.24048,3.01611-2.7439c0.336-1.14346,0.56934-2.31711,0.89117-3.65555
	c0.6861-0.07443,1.45544-0.15793,2.34119-0.25406c0.13031,2.61523,0.25476,5.11368,0.38348,7.69666
	c-7.11115,0.9306-14.13776,1.85013-21.16443,2.76965C32.97638,66.76593,32.85175,66.71341,32.72717,66.66089z"/>
<path class="st2" d="M82.57306,48.68719c-0.02954,4.39929-0.93933,7.91785-3.85876,10.64865
	c-2.51514,2.3526-5.63794,3.27911-8.97003,3.47263c-1.65747,0.09625-3.37183,0.00616-4.99805-0.31528
	c-3.63727-0.71893-6.14526-2.97293-7.55304-6.36038c-1.42462-3.42798-1.87573-7.02161-1.16168-10.68298
	c1.03552-5.30957,5.15594-9.01468,10.84998-9.62216c2.11969-0.22614,4.33478-0.2774,6.42419,0.07648
	c5.06769,0.85831,8.2453,4.49844,8.98077,9.87503C82.44299,46.9238,82.51465,48.08002,82.57306,48.68719z M77.59668,51.42267
	c-0.24335-4.00064-0.52417-7.1402-2.10425-9.98148c-1.69482-3.04767-4.4538-4.44531-7.77472-3.97983
	c-3.44916,0.48346-5.91901,2.62143-6.49524,6.09058c-0.35498,2.13712-0.37341,4.37247-0.22046,6.54099
	c0.19434,2.75537,0.86932,5.44,2.48706,7.77646c1.7807,2.57184,4.30707,3.46341,7.30756,3.06635
	c2.86505-0.37918,4.89996-1.97324,5.77795-4.7258C77.1496,54.40717,77.37671,52.49341,77.59668,51.42267z"/>
<path class="st2" d="M190.04999,37.41953c1.04944,0.18994,2.93042,0.37524,4.72034,0.88239
	c6.35132,1.79962,8.87415,6.54916,8.36707,12.75891c-0.12256,1.50085-0.41113,3.01196-0.82397,4.46121
	c-1.87537,6.58282-6.92261,9.61624-13.50244,9.13971c-1.95972-0.14194-3.94897-0.63382-5.80402-1.30075
	c-3.3009-1.18674-5.40857-3.65421-6.28149-7.03998c-1.05048-4.07462-0.7486-8.12689,0.98505-11.9519
	C179.92792,39.47693,184.07086,37.57449,190.04999,37.41953z M181.25641,52.44498c0.13684,1.30649,0.16626,2.63538,0.43304,3.91476
	c0.5448,2.61292,1.77026,4.79599,4.38312,5.89001c4.06628,1.70255,7.9707,0.34946,9.91138-3.59491
	c1.99731-4.05936,2.52478-8.39374,1.67944-12.83096c-0.59412-3.11935-2.27295-5.4238-5.53442-6.24915
	c-4.13672-1.04684-7.57837,0.62607-9.27826,4.55307C181.70569,46.77298,181.362,49.57556,181.25641,52.44498z"/>
<path class="st2" d="M4.39014,44.61203c3.36798-0.61194,6.69501-1.21646,10.00275-1.81747
	c0.45123,0.68701,0.28394,1.03162-0.37695,1.3486c-1.56549,0.75082-1.86542,1.21594-1.58392,2.91599
	c0.80756,4.87646,1.68878,9.74078,2.5498,14.60831c0.25,1.41318,0.54285,2.81876,0.79175,4.23212
	c0.23096,1.31146,0.92212,2.05173,2.31488,2.1275c0.80023,0.04355,0.79645,0.11356,0.94421,1.10263
	c-3.19775,0.58316-6.39978,1.16708-9.61969,1.75427c-0.39124-0.57785-0.42712-1.01086,0.23993-1.27124
	c1.59631-0.62311,1.90363-1.40561,1.53967-3.39774c-1.06799-5.84506-2.16388-11.685-3.25165-17.5264
	c-0.05096-0.27368-0.12329-0.54385-0.19519-0.81314c-0.43689-1.63712-0.73853-1.91794-2.44281-2.09851
	C4.65192,45.70795,4.21106,45.54236,4.39014,44.61203z"/>
<path d="M143.99304,130.6731c-0.35992,0.59473-0.59467,1.35162-1.10791,1.7478c-0.86511,0.66785-1.85986,1.25568-2.89325,1.58221
	c-0.55475,0.17529-1.50659-0.06915-1.90411-0.48383c-0.35205-0.36725-0.42566-1.33514-0.20197-1.85809
	c0.66986-1.56616,1.93494-2.64215,3.55896-3.15546C142.72424,128.10132,143.89246,129.18188,143.99304,130.6731z
	 M138.59497,133.31049c0.40131,0.0462,0.87622,0.25293,1.19012,0.10883c0.96356-0.44214,1.93695-0.92682,2.76837-1.57269
	c0.64801-0.50336,0.95258-1.33356,0.43939-2.14587c-0.54126-0.85675-1.27686-0.53973-1.98724-0.2066
	C142.19006,131.30164,141.409,132.47748,138.59497,133.31049z M138.42102,131.77618
	c0.07684,0.15552,0.15369,0.31097,0.23047,0.46643c0.56519-0.21466,1.17657-0.35675,1.6756-0.67505
	c0.24371-0.1554,0.27814-0.63892,0.40729-0.97394c-0.42535-0.02344-0.95062-0.21283-1.25232-0.03107
	C139.04376,130.82666,138.76678,131.35852,138.42102,131.77618z"/>
<path d="M145.23273,137.60919c0.17981-0.63605,0.31915-1.12903,0.48615-1.71973c-1.42334,0.05603-1.67316,1.16779-2.2652,1.95746
	c-0.25098-1.24524,0.85956-2.63367,1.97675-2.52637c1.20435,0.11566,0.86078,0.99261,0.73035,1.76514
	c0.92554,0.29254,1.646,0.78436,1.52307,1.85181c-0.12244,1.06287-0.93317,1.56378-1.84094,1.83557
	c-0.95215,0.2851-1.96997,0.6369-3.01807-0.48688c0.50848,0,0.79352,0.04089,1.06244-0.00769
	c0.80554-0.14539,1.65228-0.21765,2.38544-0.54016c0.3432-0.151,0.64459-0.82355,0.61743-1.23688
	c-0.01752-0.26617-0.65753-0.50665-1.03717-0.72662C145.69391,137.68268,145.48669,137.67352,145.23273,137.60919z"/>
<path d="M144.11749,126.50537c-4.86902,0.55817-7.94202,3.18616-10.0603,7.25055
	C133.8913,130.42822,141.08563,125.03387,144.11749,126.50537z"/>
<path d="M77.59668,51.42267c-0.21997,1.07074-0.44708,2.9845-1.02209,4.78726c-0.87799,2.75256-2.9129,4.34662-5.77795,4.7258
	c-3.00049,0.39706-5.52686-0.49451-7.30756-3.06635c-1.61774-2.33646-2.29272-5.02109-2.48706-7.77646
	c-0.15295-2.16852-0.13452-4.40387,0.22046-6.54099c0.57623-3.46915,3.04608-5.60712,6.49524-6.09058
	c3.32092-0.46548,6.0799,0.93216,7.77472,3.97983C77.07251,44.28247,77.35333,47.42203,77.59668,51.42267z M77.02026,50.65161
	c-0.28149-3.18445-0.61859-6.26883-2.21478-9.06812c-1.62561-2.85086-4.13239-3.86774-7.29828-3.39017
	c-2.92279,0.44092-4.78345,2.19534-5.51715,4.98224c-0.39063,1.4838-0.53076,3.0834-0.48523,4.62192
	c0.09869,3.33203,0.53833,6.62357,2.42291,9.51617c1.65546,2.54092,4.05933,3.34198,6.96216,2.91452
	c2.64783-0.38989,4.37231-1.95972,5.1358-4.43695C76.53668,54.13333,76.70087,52.36856,77.02026,50.65161z"/>
<path d="M181.25641,52.44498c0.10559-2.86942,0.44928-5.672,1.5943-8.31717c1.69989-3.927,5.14154-5.59991,9.27826-4.55307
	c3.26147,0.82535,4.94031,3.12979,5.53442,6.24915c0.84534,4.43723,0.31787,8.77161-1.67944,12.83096
	c-1.94067,3.94437-5.84509,5.29745-9.91138,3.59491c-2.61285-1.09402-3.83832-3.2771-4.38312-5.89001
	C181.42267,55.08035,181.39325,53.75146,181.25641,52.44498z M197.55511,49.39993c-0.3324-1.6709-0.49194-3.40039-1.0343-5.00012
	c-1.0321-3.04425-3.95166-4.72205-7.15149-4.44669c-3.3042,0.28436-5.1864,2.26892-6.20306,5.19058
	c-1.20007,3.44864-1.48291,7.02365-0.92792,10.62997c0.55957,3.63614,2.77441,5.97156,5.87415,6.36459
	c3.73071,0.47302,6.07104-0.92557,7.69751-4.63461C196.93561,54.93658,197.26056,52.20972,197.55511,49.39993z"/>
<path class="st5" d="M138.59497,133.31049c2.81403-0.83301,3.59509-2.00885,2.41064-3.81635
	c0.71039-0.33313,1.44598-0.65015,1.98724,0.2066c0.51318,0.81232,0.20862,1.64252-0.43939,2.14587
	c-0.83142,0.64587-1.80481,1.13055-2.76837,1.57269C139.47119,133.56342,138.99628,133.35669,138.59497,133.31049z"/>
<path class="st6" d="M138.42102,131.77618c0.34576-0.41766,0.62274-0.94952,1.06104-1.21362
	c0.3017-0.18176,0.82697,0.00763,1.25232,0.03107c-0.12915,0.33502-0.16357,0.81854-0.40729,0.97394
	c-0.49902,0.3183-1.11041,0.46039-1.6756,0.67505C138.57471,132.08716,138.49786,131.9317,138.42102,131.77618z"/>
<path class="st0" d="M77.02026,50.65161c-0.3194,1.71695-0.48358,3.48172-0.99457,5.13962
	c-0.76349,2.47723-2.48798,4.04706-5.1358,4.43695c-2.90283,0.42746-5.3067-0.3736-6.96216-2.91452
	c-1.88458-2.89261-2.32422-6.18414-2.42291-9.51617c-0.04553-1.53851,0.0946-3.13812,0.48523-4.62192
	c0.7337-2.7869,2.59436-4.54132,5.51715-4.98224c3.16589-0.47757,5.67267,0.53931,7.29828,3.39017
	C76.40167,44.38278,76.73877,47.46716,77.02026,50.65161z"/>
<path class="st0" d="M197.55511,49.39993c-0.29456,2.80978-0.61951,5.53665-1.74512,8.10373
	c-1.62646,3.70905-3.9668,5.10764-7.69751,4.63461c-3.09973-0.39304-5.31458-2.72845-5.87415-6.36459
	c-0.55499-3.60632-0.27216-7.18134,0.92792-10.62997c1.01666-2.92166,2.89886-4.90622,6.20306-5.19058
	c3.19983-0.27536,6.11938,1.40244,7.15149,4.44669C197.06317,45.99954,197.22272,47.72903,197.55511,49.39993z"/>
</svg>
