^C:\GLEW-2.1.0-WIN32\GLEW-2.1.0\LIB\RELEASE\X64\GLEW32.LIB|C:\SDL2-2.0.9\LIB\X64\SDL2.LIB|C:\SDL2-2.0.9\LIB\X64\SDL2MAIN.LIB|C:\SDL2-2.0.9\LIB\X64\SDL2TEST.LIB|C:\USERS\VADIM\SOURCE\REPOS\SDLGL\SDLGL\X64\DEBUG\MAIN.OBJ|C:\USERS\VADIM\SOURCE\REPOS\SDLGL\SDLGL\X64\DEBUG\NANOVG.OBJ|C:\USERS\VADIM\SOURCE\REPOS\SDLGL\SDLGL\X64\DEBUG\PAINTER_COMMANDS.OBJ|C:\USERS\VADIM\SOURCE\REPOS\SDLGL\SDLGL\X64\DEBUG\PAINTER_COMMON.OBJ
/OUT:"C:\USERS\VADIM\SOURCE\REPOS\SDLGL\X64\DEBUG\SDLGL.EXE" /INCREMENTAL /NOLOGO OPENGL32.LIB KERNEL32.LIB USER32.LIB GDI32.LIB WINSPOOL.LIB COMDLG32.LIB ADVAPI32.LIB SHELL32.LIB OLE32.LIB OLEAUT32.LIB UUID.LIB ODBC32.LIB ODBCCP32.LIB /MANIFEST /MANIFESTUAC:"level='asInvoker' uiAccess='false'" /manifest:embed /DEBUG:FASTLINK /PDB:"C:\USERS\VADIM\SOURCE\REPOS\SDLGL\X64\DEBUG\SDLGL.PDB" /TLBID:1 /DYNAMICBASE /NXCOMPAT /IMPLIB:"C:\USERS\VADIM\SOURCE\REPOS\SDLGL\X64\DEBUG\SDLGL.LIB" /MACHINE:X64 X64\DEBUG\MAIN.OBJX64\DEBUG\NANOVG.OBJX64\DEBUG\PAINTER_COMMANDS.OBJX64\DEBUG\PAINTER_COMMON.OBJ"..\..\..\..\..\..\GLEW-2.1.0-WIN32\GLEW-2.1.0\LIB\RELEASE\X64\GLEW32.LIB""..\..\..\..\..\..\SDL2-2.0.9\LIB\X64\SDL2.LIB""..\..\..\..\..\..\SDL2-2.0.9\LIB\X64\SDL2MAIN.LIB""..\..\..\..\..\..\SDL2-2.0.9\LIB\X64\SDL2TEST.LIB"
^C:\DEV\GLEW-2.1.0-WIN32\GLEW-2.1.0\LIB\RELEASE\X64\GLEW32.LIB|C:\DEV\SDL2-2.0.9VS\LIB\X64\SDL2.LIB|C:\DEV\SDL2-2.0.9VS\LIB\X64\SDL2MAIN.LIB|C:\DEV\SDL2-2.0.9VS\LIB\X64\SDL2TEST.LIB|C:\DEV\SDL2_IMAGE-2.0.4_VS\LIB\X64\SDL2_IMAGE.LIB|C:\USERS\USER\SOURCE\REPOS\SDLGL\X64\DEBUG\MAIN.OBJ|C:\USERS\USER\SOURCE\REPOS\SDLGL\X64\DEBUG\NANOVG.OBJ|C:\USERS\USER\SOURCE\REPOS\SDLGL\X64\DEBUG\PAINTER_COMMANDS.OBJ|C:\USERS\USER\SOURCE\REPOS\SDLGL\X64\DEBUG\PAINTER_COMMON.OBJ
/OUT:"C:\USERS\USER\SOURCE\REPOS\SDLGL\X64\DEBUG\SDLGL.EXE" /INCREMENTAL /NOLOGO /LIBPATH:"C:\DEV\GLEW-2.1.0-WIN32\GLEW-2.1.0\LIB\RELEASE\X64" /LIBPATH:"C:\DEV\SDL2_IMAGE-2.0.4_VS\LIB\X64" /LIBPATH:"C:\DEV\SDL2-2.0.9VS\LIB\X64" OPENGL32.LIB KERNEL32.LIB USER32.LIB GDI32.LIB WINSPOOL.LIB COMDLG32.LIB ADVAPI32.LIB SHELL32.LIB OLE32.LIB OLEAUT32.LIB UUID.LIB ODBC32.LIB ODBCCP32.LIB /MANIFEST /MANIFESTUAC:"level='asInvoker' uiAccess='false'" /manifest:embed /DEBUG:FASTLINK /PDB:"C:\USERS\USER\SOURCE\REPOS\SDLGL\X64\DEBUG\SDLGL.PDB" /TLBID:1 /DYNAMICBASE /NXCOMPAT /IMPLIB:"C:\USERS\USER\SOURCE\REPOS\SDLGL\X64\DEBUG\SDLGL.LIB" /MACHINE:X64 X64\DEBUG\MAIN.OBJX64\DEBUG\NANOVG.OBJX64\DEBUG\PAINTER_COMMANDS.OBJX64\DEBUG\PAINTER_COMMON.OBJ"..\..\..\..\..\DEV\GLEW-2.1.0-WIN32\GLEW-2.1.0\LIB\RELEASE\X64\GLEW32.LIB""..\..\..\..\..\DEV\SDL2-2.0.9VS\LIB\X64\SDL2.LIB""..\..\..\..\..\DEV\SDL2-2.0.9VS\LIB\X64\SDL2MAIN.LIB""..\..\..\..\..\DEV\SDL2-2.0.9VS\LIB\X64\SDL2TEST.LIB""..\..\..\..\..\DEV\SDL2_IMAGE-2.0.4_VS\LIB\X64\SDL2_IMAGE.LIB"
^C:\USERS\DEV\GLEW-2.1.0-WIN32\GLEW-2.1.0\LIB\RELEASE\X64\GLEW32.LIB|C:\USERS\DEV\SDL2-2.0.9VS\LIB\X64\SDL2.LIB|C:\USERS\DEV\SDL2-2.0.9VS\LIB\X64\SDL2MAIN.LIB|C:\USERS\DEV\SDL2-2.0.9VS\LIB\X64\SDL2TEST.LIB|C:\USERS\DEV\SDL2_IMAGE-2.0.4_VS\LIB\X64\SDL2_IMAGE.LIB|C:\USERS\USER\SOURCE\REPOS\SGL-PAINTER\SDLGL\X64\DEBUG\MAIN.OBJ|C:\USERS\USER\SOURCE\REPOS\SGL-PAINTER\SDLGL\X64\DEBUG\NANOVG.OBJ|C:\USERS\USER\SOURCE\REPOS\SGL-PAINTER\SDLGL\X64\DEBUG\PAINTER_COMMANDS.OBJ|C:\USERS\USER\SOURCE\REPOS\SGL-PAINTER\SDLGL\X64\DEBUG\PAINTER_COMMON.OBJ
/OUT:"C:\USERS\USER\SOURCE\REPOS\SGL-PAINTER\SDLGL\X64\DEBUG\SDLGL.EXE" /INCREMENTAL /NOLOGO /LIBPATH:"C:\DEV\GLEW-2.1.0-WIN32\GLEW-2.1.0\LIB\RELEASE\X64" /LIBPATH:"C:\DEV\SDL2_IMAGE-2.0.4_VS\LIB\X64" /LIBPATH:"C:\DEV\SDL2-2.0.9VS\LIB\X64" OPENGL32.LIB KERNEL32.LIB USER32.LIB GDI32.LIB WINSPOOL.LIB COMDLG32.LIB ADVAPI32.LIB SHELL32.LIB OLE32.LIB OLEAUT32.LIB UUID.LIB ODBC32.LIB ODBCCP32.LIB /MANIFEST /MANIFESTUAC:"level='asInvoker' uiAccess='false'" /manifest:embed /DEBUG:FASTLINK /PDB:"C:\USERS\USER\SOURCE\REPOS\SGL-PAINTER\SDLGL\X64\DEBUG\SDLGL.PDB" /TLBID:1 /DYNAMICBASE /NXCOMPAT /IMPLIB:"C:\USERS\USER\SOURCE\REPOS\SGL-PAINTER\SDLGL\X64\DEBUG\SDLGL.LIB" /MACHINE:X64 X64\DEBUG\MAIN.OBJX64\DEBUG\NANOVG.OBJX64\DEBUG\PAINTER_COMMANDS.OBJX64\DEBUG\PAINTER_COMMON.OBJ"..\..\..\..\..\DEV\GLEW-2.1.0-WIN32\GLEW-2.1.0\LIB\RELEASE\X64\GLEW32.LIB""..\..\..\..\..\DEV\SDL2-2.0.9VS\LIB\X64\SDL2.LIB""..\..\..\..\..\DEV\SDL2-2.0.9VS\LIB\X64\SDL2MAIN.LIB""..\..\..\..\..\DEV\SDL2-2.0.9VS\LIB\X64\SDL2TEST.LIB""..\..\..\..\..\DEV\SDL2_IMAGE-2.0.4_VS\LIB\X64\SDL2_IMAGE.LIB"
^C:\USERS\DEV\GLEW-2.1.0-WIN32\GLEW-2.1.0\LIB\RELEASE\X64\GLEW32.LIB|C:\USERS\DEV\SDL2-2.0.9VS\LIB\X64\SDL2.LIB|C:\USERS\DEV\SDL2-2.0.9VS\LIB\X64\SDL2MAIN.LIB|C:\USERS\DEV\SDL2-2.0.9VS\LIB\X64\SDL2TEST.LIB|C:\USERS\DEV\SDL2_IMAGE-2.0.4_VS\LIB\X64\SDL2_IMAGE.LIB|C:\USERS\USER\SOURCE\REPOS\SGL-PAINTER\PIXELART\X64\DEBUG\ATLASREADER.OBJ|C:\USERS\USER\SOURCE\REPOS\SGL-PAINTER\PIXELART\X64\DEBUG\MAIN.OBJ|C:\USERS\USER\SOURCE\REPOS\SGL-PAINTER\PIXELART\X64\DEBUG\NANOVG.OBJ|C:\USERS\USER\SOURCE\REPOS\SGL-PAINTER\PIXELART\X64\DEBUG\PAINTER_COMMANDS.OBJ|C:\USERS\USER\SOURCE\REPOS\SGL-PAINTER\PIXELART\X64\DEBUG\PAINTER_COMMON.OBJ
/OUT:"C:\USERS\USER\SOURCE\REPOS\SGL-PAINTER\PIXELART\X64\DEBUG\SDLGL.EXE" /INCREMENTAL /NOLOGO /LIBPATH:"C:\DEV\GLEW-2.1.0-WIN32\GLEW-2.1.0\LIB\RELEASE\X64" /LIBPATH:"C:\DEV\SDL2_IMAGE-2.0.4_VS\LIB\X64" /LIBPATH:"C:\DEV\SDL2-2.0.9VS\LIB\X64" OPENGL32.LIB KERNEL32.LIB USER32.LIB GDI32.LIB WINSPOOL.LIB COMDLG32.LIB ADVAPI32.LIB SHELL32.LIB OLE32.LIB OLEAUT32.LIB UUID.LIB ODBC32.LIB ODBCCP32.LIB /MANIFEST /MANIFESTUAC:"level='asInvoker' uiAccess='false'" /manifest:embed /DEBUG:FASTLINK /PDB:"C:\USERS\USER\SOURCE\REPOS\SGL-PAINTER\PIXELART\X64\DEBUG\SDLGL.PDB" /TLBID:1 /DYNAMICBASE /NXCOMPAT /IMPLIB:"C:\USERS\USER\SOURCE\REPOS\SGL-PAINTER\PIXELART\X64\DEBUG\SDLGL.LIB" /MACHINE:X64 X64\DEBUG\ATLASREADER.OBJX64\DEBUG\MAIN.OBJX64\DEBUG\NANOVG.OBJX64\DEBUG\PAINTER_COMMANDS.OBJX64\DEBUG\PAINTER_COMMON.OBJ"..\..\..\..\..\DEV\GLEW-2.1.0-WIN32\GLEW-2.1.0\LIB\RELEASE\X64\GLEW32.LIB""..\..\..\..\..\DEV\SDL2-2.0.9VS\LIB\X64\SDL2.LIB""..\..\..\..\..\DEV\SDL2-2.0.9VS\LIB\X64\SDL2MAIN.LIB""..\..\..\..\..\DEV\SDL2-2.0.9VS\LIB\X64\SDL2TEST.LIB""..\..\..\..\..\DEV\SDL2_IMAGE-2.0.4_VS\LIB\X64\SDL2_IMAGE.LIB"
^C:\DEV\GLEW-2.1.0-WIN32\GLEW-2.1.0\LIB\RELEASE\X64\GLEW32.LIB|C:\DEV\SDL2-2.0.9VS\LIB\X64\SDL2.LIB|C:\DEV\SDL2-2.0.9VS\LIB\X64\SDL2MAIN.LIB|C:\DEV\SDL2-2.0.9VS\LIB\X64\SDL2TEST.LIB|C:\DEV\SDL2_IMAGE-2.0.4_VS\LIB\X64\SDL2_IMAGE.LIB|C:\USERS\ALHETTA\DOCUMENTS\SKIA\OUT\CLANG\SKIA.LIB|C:\USERS\ALHETTA\SOURCE\SGL-PAINTER\PIXELART\X64\DEBUG\ATLASREADER.OBJ|C:\USERS\ALHETTA\SOURCE\SGL-PAINTER\PIXELART\X64\DEBUG\BUCKETALLOC.OBJ|C:\USERS\ALHETTA\SOURCE\SGL-PAINTER\PIXELART\X64\DEBUG\DICT.OBJ|C:\USERS\ALHETTA\SOURCE\SGL-PAINTER\PIXELART\X64\DEBUG\GEOM.OBJ|C:\USERS\ALHETTA\SOURCE\SGL-PAINTER\PIXELART\X64\DEBUG\MAIN.OBJ|C:\USERS\ALHETTA\SOURCE\SGL-PAINTER\PIXELART\X64\DEBUG\MESH.OBJ|C:\USERS\ALHETTA\SOURCE\SGL-PAINTER\PIXELART\X64\DEBUG\NANOVG.OBJ|C:\USERS\ALHETTA\SOURCE\SGL-PAINTER\PIXELART\X64\DEBUG\PAINTER_COMMANDS.OBJ|C:\USERS\ALHETTA\SOURCE\SGL-PAINTER\PIXELART\X64\DEBUG\PAINTER_COMMON.OBJ|C:\USERS\ALHETTA\SOURCE\SGL-PAINTER\PIXELART\X64\DEBUG\PRIORITYQ.OBJ|C:\USERS\ALHETTA\SOURCE\SGL-PAINTER\PIXELART\X64\DEBUG\SWEEP.OBJ|C:\USERS\ALHETTA\SOURCE\SGL-PAINTER\PIXELART\X64\DEBUG\TESS.OBJ
/OUT:"C:\USERS\ALHETTA\SOURCE\SGL-PAINTER\PIXELART\X64\DEBUG\SDLGL.EXE" /INCREMENTAL /NOLOGO OPENGL32.LIB KERNEL32.LIB USER32.LIB GDI32.LIB WINSPOOL.LIB COMDLG32.LIB ADVAPI32.LIB SHELL32.LIB OLE32.LIB OLEAUT32.LIB UUID.LIB ODBC32.LIB ODBCCP32.LIB /MANIFEST /MANIFESTUAC:"level='asInvoker' uiAccess='false'" /manifest:embed /DEBUG:FASTLINK /PDB:"C:\USERS\ALHETTA\SOURCE\SGL-PAINTER\PIXELART\X64\DEBUG\SDLGL.PDB" /TLBID:1 /DYNAMICBASE /NXCOMPAT /IMPLIB:"C:\USERS\ALHETTA\SOURCE\SGL-PAINTER\PIXELART\X64\DEBUG\SDLGL.LIB" /MACHINE:X64 X64\DEBUG\ATLASREADER.OBJX64\DEBUG\BUCKETALLOC.OBJX64\DEBUG\DICT.OBJX64\DEBUG\GEOM.OBJX64\DEBUG\MESH.OBJX64\DEBUG\PRIORITYQ.OBJX64\DEBUG\SWEEP.OBJX64\DEBUG\TESS.OBJX64\DEBUG\MAIN.OBJX64\DEBUG\NANOVG.OBJX64\DEBUG\PAINTER_COMMANDS.OBJX64\DEBUG\PAINTER_COMMON.OBJ"..\..\..\..\..\DEV\GLEW-2.1.0-WIN32\GLEW-2.1.0\LIB\RELEASE\X64\GLEW32.LIB""..\..\..\..\..\DEV\SDL2-2.0.9VS\LIB\X64\SDL2.LIB""..\..\..\..\..\DEV\SDL2-2.0.9VS\LIB\X64\SDL2MAIN.LIB""..\..\..\..\..\DEV\SDL2-2.0.9VS\LIB\X64\SDL2TEST.LIB""..\..\..\..\..\DEV\SDL2_IMAGE-2.0.4_VS\LIB\X64\SDL2_IMAGE.LIB"..\..\..\DOCUMENTS\SKIA\OUT\CLANG\SKIA.LIB
